%YAML 1.1
%TAG !u! tag:unity3d.com,2011:
--- !u!29 &1
OcclusionCullingSettings:
  m_ObjectHideFlags: 0
  serializedVersion: 2
  m_OcclusionBakeSettings:
    smallestOccluder: 5
    smallestHole: 0.25
    backfaceThreshold: 100
  m_SceneGUID: 00000000000000000000000000000000
  m_OcclusionCullingData: {fileID: 0}
--- !u!104 &2
RenderSettings:
  m_ObjectHideFlags: 0
  serializedVersion: 9
  m_Fog: 0
  m_FogColor: {r: 0.5, g: 0.5, b: 0.5, a: 1}
  m_FogMode: 3
  m_FogDensity: 0.01
  m_LinearFogStart: 0
  m_LinearFogEnd: 300
  m_AmbientSkyColor: {r: 0.212, g: 0.227, b: 0.259, a: 1}
  m_AmbientEquatorColor: {r: 0.114, g: 0.125, b: 0.133, a: 1}
  m_AmbientGroundColor: {r: 0.047, g: 0.043, b: 0.035, a: 1}
  m_AmbientIntensity: 1
  m_AmbientMode: 0
  m_SubtractiveShadowColor: {r: 0.42, g: 0.478, b: 0.627, a: 1}
  m_SkyboxMaterial: {fileID: 0}
  m_HaloStrength: 0.5
  m_FlareStrength: 1
  m_FlareFadeSpeed: 3
  m_HaloTexture: {fileID: 0}
  m_SpotCookie: {fileID: 10001, guid: 0000000000000000e000000000000000, type: 0}
  m_DefaultReflectionMode: 0
  m_DefaultReflectionResolution: 128
  m_ReflectionBounces: 1
  m_ReflectionIntensity: 1
  m_CustomReflection: {fileID: 0}
  m_Sun: {fileID: 0}
  m_IndirectSpecularColor: {r: 0, g: 0, b: 0, a: 1}
  m_UseRadianceAmbientProbe: 0
--- !u!157 &4
LightmapSettings:
  m_ObjectHideFlags: 0
  serializedVersion: 12
  m_GIWorkflowMode: 0
  m_GISettings:
    serializedVersion: 2
    m_BounceScale: 1
    m_IndirectOutputScale: 1
    m_AlbedoBoost: 1
    m_EnvironmentLightingMode: 0
    m_EnableBakedLightmaps: 1
    m_EnableRealtimeLightmaps: 1
  m_LightmapEditorSettings:
    serializedVersion: 12
    m_Resolution: 2
    m_BakeResolution: 40
    m_AtlasSize: 1024
    m_AO: 0
    m_AOMaxDistance: 1
    m_CompAOExponent: 0
    m_CompAOExponentDirect: 0
    m_ExtractAmbientOcclusion: 0
    m_Padding: 2
    m_LightmapParameters: {fileID: 0}
    m_LightmapsBakeMode: 1
    m_TextureCompression: 1
    m_FinalGather: 0
    m_FinalGatherFiltering: 1
    m_FinalGatherRayCount: 1024
    m_ReflectionCompression: 2
    m_MixedBakeMode: 1
    m_BakeBackend: 0
    m_PVRSampling: 1
    m_PVRDirectSampleCount: 32
    m_PVRSampleCount: 512
    m_PVRBounces: 2
    m_PVREnvironmentSampleCount: 512
    m_PVREnvironmentReferencePointCount: 2048
    m_PVRFilteringMode: 0
    m_PVRDenoiserTypeDirect: 0
    m_PVRDenoiserTypeIndirect: 0
    m_PVRDenoiserTypeAO: 0
    m_PVRFilterTypeDirect: 0
    m_PVRFilterTypeIndirect: 0
    m_PVRFilterTypeAO: 0
    m_PVREnvironmentMIS: 0
    m_PVRCulling: 1
    m_PVRFilteringGaussRadiusDirect: 1
    m_PVRFilteringGaussRadiusIndirect: 5
    m_PVRFilteringGaussRadiusAO: 2
    m_PVRFilteringAtrousPositionSigmaDirect: 0.5
    m_PVRFilteringAtrousPositionSigmaIndirect: 2
    m_PVRFilteringAtrousPositionSigmaAO: 1
    m_ExportTrainingData: 0
    m_TrainingDataDestination: TrainingData
    m_LightProbeSampleCountMultiplier: 4
  m_LightingDataAsset: {fileID: 0}
  m_LightingSettings: {fileID: 4890085278179872738, guid: 40dfb88478f624bfdaa76bbd4ee44daf, type: 2}
--- !u!196 &5
NavMeshSettings:
  serializedVersion: 2
  m_ObjectHideFlags: 0
  m_BuildSettings:
    serializedVersion: 2
    agentTypeID: 0
    agentRadius: 0.5
    agentHeight: 2
    agentSlope: 45
    agentClimb: 0.4
    ledgeDropHeight: 0
    maxJumpAcrossDistance: 0
    minRegionArea: 2
    manualCellSize: 0
    cellSize: 0.16666667
    manualTileSize: 0
    tileSize: 256
    accuratePlacement: 0
    maxJobWorkers: 0
    preserveTilesOutsideBounds: 0
    debug:
      m_Flags: 0
  m_NavMeshData: {fileID: 0}
--- !u!1 &52914724
GameObject:
  m_ObjectHideFlags: 0
  m_CorrespondingSourceObject: {fileID: 0}
  m_PrefabInstance: {fileID: 0}
  m_PrefabAsset: {fileID: 0}
  serializedVersion: 6
  m_Component:
  - component: {fileID: 52914726}
  - component: {fileID: 52914725}
  m_Layer: 0
  m_Name: Directional Light
  m_TagString: Untagged
  m_Icon: {fileID: 0}
  m_NavMeshLayer: 0
  m_StaticEditorFlags: 0
  m_IsActive: 1
--- !u!108 &52914725
Light:
  m_ObjectHideFlags: 0
  m_CorrespondingSourceObject: {fileID: 0}
  m_PrefabInstance: {fileID: 0}
  m_PrefabAsset: {fileID: 0}
  m_GameObject: {fileID: 52914724}
  m_Enabled: 1
  serializedVersion: 10
  m_Type: 1
  m_Shape: 0
  m_Color: {r: 1, g: 0.95686275, b: 0.8392157, a: 1}
  m_Intensity: 1
  m_Range: 10
  m_SpotAngle: 30
  m_InnerSpotAngle: 21.802082
  m_CookieSize: 10
  m_Shadows:
    m_Type: 2
    m_Resolution: -1
    m_CustomResolution: -1
    m_Strength: 1
    m_Bias: 0.05
    m_NormalBias: 0.4
    m_NearPlane: 0.2
    m_CullingMatrixOverride:
      e00: 1
      e01: 0
      e02: 0
      e03: 0
      e10: 0
      e11: 1
      e12: 0
      e13: 0
      e20: 0
      e21: 0
      e22: 1
      e23: 0
      e30: 0
      e31: 0
      e32: 0
      e33: 1
    m_UseCullingMatrixOverride: 0
  m_Cookie: {fileID: 0}
  m_DrawHalo: 0
  m_Flare: {fileID: 0}
  m_RenderMode: 0
  m_CullingMask:
    serializedVersion: 2
    m_Bits: 4294967295
  m_RenderingLayerMask: 1
  m_Lightmapping: 4
  m_LightShadowCasterMode: 0
  m_AreaSize: {x: 1, y: 1}
  m_BounceIntensity: 1
  m_ColorTemperature: 6570
  m_UseColorTemperature: 0
  m_BoundingSphereOverride: {x: 0, y: 0, z: 0, w: 0}
  m_UseBoundingSphereOverride: 0
  m_UseViewFrustumForShadowCasterCull: 1
  m_ShadowRadius: 0
  m_ShadowAngle: 0
--- !u!4 &52914726
Transform:
  m_ObjectHideFlags: 0
  m_CorrespondingSourceObject: {fileID: 0}
  m_PrefabInstance: {fileID: 0}
  m_PrefabAsset: {fileID: 0}
  m_GameObject: {fileID: 52914724}
  m_LocalRotation: {x: 0.513604, y: -0.63970524, z: -0.084295236, w: 0.5655816}
  m_LocalPosition: {x: 25.87, y: 26.67, z: 47.46}
  m_LocalScale: {x: 1, y: 1, z: 1}
  m_ConstrainProportionsScale: 0
  m_Children: []
  m_Father: {fileID: 0}
  m_RootOrder: 21
  m_LocalEulerAnglesHint: {x: 0, y: 0, z: 0}
--- !u!1001 &209193201
PrefabInstance:
  m_ObjectHideFlags: 0
  serializedVersion: 2
  m_Modification:
    m_TransformParent: {fileID: 0}
    m_Modifications:
    - target: {fileID: 453146, guid: 410b5de8a6fad3b4491308f2a1c87efa, type: 3}
      propertyPath: m_RootOrder
      value: 3
      objectReference: {fileID: 0}
    - target: {fileID: 453146, guid: 410b5de8a6fad3b4491308f2a1c87efa, type: 3}
      propertyPath: m_LocalPosition.x
      value: 0
      objectReference: {fileID: 0}
    - target: {fileID: 453146, guid: 410b5de8a6fad3b4491308f2a1c87efa, type: 3}
      propertyPath: m_LocalPosition.y
      value: 0
      objectReference: {fileID: 0}
    - target: {fileID: 453146, guid: 410b5de8a6fad3b4491308f2a1c87efa, type: 3}
      propertyPath: m_LocalPosition.z
      value: 0
      objectReference: {fileID: 0}
    - target: {fileID: 453146, guid: 410b5de8a6fad3b4491308f2a1c87efa, type: 3}
      propertyPath: m_LocalRotation.w
      value: 1
      objectReference: {fileID: 0}
    - target: {fileID: 453146, guid: 410b5de8a6fad3b4491308f2a1c87efa, type: 3}
      propertyPath: m_LocalRotation.x
      value: 0
      objectReference: {fileID: 0}
    - target: {fileID: 453146, guid: 410b5de8a6fad3b4491308f2a1c87efa, type: 3}
      propertyPath: m_LocalRotation.y
      value: 0
      objectReference: {fileID: 0}
    - target: {fileID: 453146, guid: 410b5de8a6fad3b4491308f2a1c87efa, type: 3}
      propertyPath: m_LocalRotation.z
      value: 0
      objectReference: {fileID: 0}
    m_RemovedComponents: []
  m_SourcePrefab: {fileID: 100100000, guid: 410b5de8a6fad3b4491308f2a1c87efa, type: 3}
--- !u!1001 &270818539
PrefabInstance:
  m_ObjectHideFlags: 0
  serializedVersion: 2
  m_Modification:
    m_TransformParent: {fileID: 0}
    m_Modifications:
    - target: {fileID: 176012, guid: 6eb52968ab2779d4db7990fe0f754609, type: 3}
      propertyPath: m_Name
      value: Nebula_Large 2
      objectReference: {fileID: 0}
    - target: {fileID: 448446, guid: 6eb52968ab2779d4db7990fe0f754609, type: 3}
      propertyPath: m_RootOrder
      value: 0
      objectReference: {fileID: 0}
    - target: {fileID: 448446, guid: 6eb52968ab2779d4db7990fe0f754609, type: 3}
      propertyPath: m_LocalPosition.x
      value: 0
      objectReference: {fileID: 0}
    - target: {fileID: 448446, guid: 6eb52968ab2779d4db7990fe0f754609, type: 3}
      propertyPath: m_LocalPosition.y
      value: 0
      objectReference: {fileID: 0}
    - target: {fileID: 448446, guid: 6eb52968ab2779d4db7990fe0f754609, type: 3}
      propertyPath: m_LocalPosition.z
      value: 0
      objectReference: {fileID: 0}
    - target: {fileID: 448446, guid: 6eb52968ab2779d4db7990fe0f754609, type: 3}
      propertyPath: m_LocalRotation.w
      value: -.114715785
      objectReference: {fileID: 0}
    - target: {fileID: 448446, guid: 6eb52968ab2779d4db7990fe0f754609, type: 3}
      propertyPath: m_LocalRotation.x
      value: .793762326
      objectReference: {fileID: 0}
    - target: {fileID: 448446, guid: 6eb52968ab2779d4db7990fe0f754609, type: 3}
      propertyPath: m_LocalRotation.y
      value: .592349946
      objectReference: {fileID: 0}
    - target: {fileID: 448446, guid: 6eb52968ab2779d4db7990fe0f754609, type: 3}
      propertyPath: m_LocalRotation.z
      value: .0768332928
      objectReference: {fileID: 0}
    - target: {fileID: 2394668, guid: 6eb52968ab2779d4db7990fe0f754609, type: 3}
      propertyPath: m_Materials.Array.data[0]
      value: 
      objectReference: {fileID: 2100000, guid: 02695f652946c7e47894bac87ea63a18, type: 2}
    m_RemovedComponents: []
  m_SourcePrefab: {fileID: 100100000, guid: 6eb52968ab2779d4db7990fe0f754609, type: 3}
--- !u!1001 &346677820
PrefabInstance:
  m_ObjectHideFlags: 0
  serializedVersion: 2
  m_Modification:
    m_TransformParent: {fileID: 0}
    m_Modifications:
    - target: {fileID: 430450, guid: 0e66f862ac3e68c429da9f9aac1bb079, type: 3}
      propertyPath: m_RootOrder
      value: 12
      objectReference: {fileID: 0}
    - target: {fileID: 430450, guid: 0e66f862ac3e68c429da9f9aac1bb079, type: 3}
      propertyPath: m_LocalPosition.x
      value: 0
      objectReference: {fileID: 0}
    - target: {fileID: 430450, guid: 0e66f862ac3e68c429da9f9aac1bb079, type: 3}
      propertyPath: m_LocalPosition.y
      value: 8.27000046
      objectReference: {fileID: 0}
    - target: {fileID: 430450, guid: 0e66f862ac3e68c429da9f9aac1bb079, type: 3}
      propertyPath: m_LocalPosition.z
      value: -66.8700027
      objectReference: {fileID: 0}
    - target: {fileID: 430450, guid: 0e66f862ac3e68c429da9f9aac1bb079, type: 3}
      propertyPath: m_LocalRotation.w
      value: 1
      objectReference: {fileID: 0}
    - target: {fileID: 430450, guid: 0e66f862ac3e68c429da9f9aac1bb079, type: 3}
      propertyPath: m_LocalRotation.x
      value: 0
      objectReference: {fileID: 0}
    - target: {fileID: 430450, guid: 0e66f862ac3e68c429da9f9aac1bb079, type: 3}
      propertyPath: m_LocalRotation.y
      value: 0
      objectReference: {fileID: 0}
    - target: {fileID: 430450, guid: 0e66f862ac3e68c429da9f9aac1bb079, type: 3}
      propertyPath: m_LocalRotation.z
      value: 0
      objectReference: {fileID: 0}
    m_RemovedComponents: []
  m_SourcePrefab: {fileID: 100100000, guid: 0e66f862ac3e68c429da9f9aac1bb079, type: 3}
--- !u!1001 &372839054
PrefabInstance:
  m_ObjectHideFlags: 0
  serializedVersion: 2
  m_Modification:
    m_TransformParent: {fileID: 0}
    m_Modifications:
    - target: {fileID: 408684, guid: c38c830f1a01cc2419486a2e550473ee, type: 3}
      propertyPath: m_RootOrder
      value: 6
      objectReference: {fileID: 0}
    - target: {fileID: 408684, guid: c38c830f1a01cc2419486a2e550473ee, type: 3}
      propertyPath: m_LocalPosition.x
      value: -10.1000004
      objectReference: {fileID: 0}
    - target: {fileID: 408684, guid: c38c830f1a01cc2419486a2e550473ee, type: 3}
      propertyPath: m_LocalPosition.y
      value: 3.25999999
      objectReference: {fileID: 0}
    - target: {fileID: 408684, guid: c38c830f1a01cc2419486a2e550473ee, type: 3}
      propertyPath: m_LocalPosition.z
      value: -57.4799995
      objectReference: {fileID: 0}
    - target: {fileID: 408684, guid: c38c830f1a01cc2419486a2e550473ee, type: 3}
      propertyPath: m_LocalRotation.w
      value: 1
      objectReference: {fileID: 0}
    - target: {fileID: 408684, guid: c38c830f1a01cc2419486a2e550473ee, type: 3}
      propertyPath: m_LocalRotation.x
      value: 0
      objectReference: {fileID: 0}
    - target: {fileID: 408684, guid: c38c830f1a01cc2419486a2e550473ee, type: 3}
      propertyPath: m_LocalRotation.y
      value: 0
      objectReference: {fileID: 0}
    - target: {fileID: 408684, guid: c38c830f1a01cc2419486a2e550473ee, type: 3}
      propertyPath: m_LocalRotation.z
      value: 0
      objectReference: {fileID: 0}
    m_RemovedComponents: []
  m_SourcePrefab: {fileID: 100100000, guid: c38c830f1a01cc2419486a2e550473ee, type: 3}
--- !u!1001 &397105602
PrefabInstance:
  m_ObjectHideFlags: 0
  serializedVersion: 2
  m_Modification:
    m_TransformParent: {fileID: 0}
    m_Modifications:
    - target: {fileID: 176012, guid: 6eb52968ab2779d4db7990fe0f754609, type: 3}
      propertyPath: m_Name
      value: Nebula_Large 6
      objectReference: {fileID: 0}
    - target: {fileID: 448446, guid: 6eb52968ab2779d4db7990fe0f754609, type: 3}
      propertyPath: m_RootOrder
      value: 1
      objectReference: {fileID: 0}
    - target: {fileID: 448446, guid: 6eb52968ab2779d4db7990fe0f754609, type: 3}
      propertyPath: m_LocalPosition.x
      value: 0
      objectReference: {fileID: 0}
    - target: {fileID: 448446, guid: 6eb52968ab2779d4db7990fe0f754609, type: 3}
      propertyPath: m_LocalPosition.y
      value: 0
      objectReference: {fileID: 0}
    - target: {fileID: 448446, guid: 6eb52968ab2779d4db7990fe0f754609, type: 3}
      propertyPath: m_LocalPosition.z
      value: 0
      objectReference: {fileID: 0}
    - target: {fileID: 448446, guid: 6eb52968ab2779d4db7990fe0f754609, type: 3}
      propertyPath: m_LocalRotation.w
      value: -.222907677
      objectReference: {fileID: 0}
    - target: {fileID: 448446, guid: 6eb52968ab2779d4db7990fe0f754609, type: 3}
      propertyPath: m_LocalRotation.x
      value: .672744334
      objectReference: {fileID: 0}
    - target: {fileID: 448446, guid: 6eb52968ab2779d4db7990fe0f754609, type: 3}
      propertyPath: m_LocalRotation.y
      value: -.676139235
      objectReference: {fileID: 0}
    - target: {fileID: 448446, guid: 6eb52968ab2779d4db7990fe0f754609, type: 3}
      propertyPath: m_LocalRotation.z
      value: -.201402903
      objectReference: {fileID: 0}
    - target: {fileID: 2394668, guid: 6eb52968ab2779d4db7990fe0f754609, type: 3}
      propertyPath: m_Materials.Array.data[0]
      value: 
      objectReference: {fileID: 2100000, guid: 02695f652946c7e47894bac87ea63a18, type: 2}
    m_RemovedComponents: []
  m_SourcePrefab: {fileID: 100100000, guid: 6eb52968ab2779d4db7990fe0f754609, type: 3}
--- !u!1001 &461424135
PrefabInstance:
  m_ObjectHideFlags: 0
  serializedVersion: 2
  m_Modification:
    m_TransformParent: {fileID: 0}
    m_Modifications:
    - target: {fileID: 176012, guid: 6eb52968ab2779d4db7990fe0f754609, type: 3}
      propertyPath: m_Name
      value: Nebula_Large 1
      objectReference: {fileID: 0}
    - target: {fileID: 448446, guid: 6eb52968ab2779d4db7990fe0f754609, type: 3}
      propertyPath: m_RootOrder
      value: 11
      objectReference: {fileID: 0}
    - target: {fileID: 448446, guid: 6eb52968ab2779d4db7990fe0f754609, type: 3}
      propertyPath: m_LocalPosition.x
      value: 0
      objectReference: {fileID: 0}
    - target: {fileID: 448446, guid: 6eb52968ab2779d4db7990fe0f754609, type: 3}
      propertyPath: m_LocalPosition.y
      value: 0
      objectReference: {fileID: 0}
    - target: {fileID: 448446, guid: 6eb52968ab2779d4db7990fe0f754609, type: 3}
      propertyPath: m_LocalPosition.z
      value: 0
      objectReference: {fileID: 0}
    - target: {fileID: 448446, guid: 6eb52968ab2779d4db7990fe0f754609, type: 3}
      propertyPath: m_LocalRotation.w
      value: .953274727
      objectReference: {fileID: 0}
    - target: {fileID: 448446, guid: 6eb52968ab2779d4db7990fe0f754609, type: 3}
      propertyPath: m_LocalRotation.x
      value: .234566167
      objectReference: {fileID: 0}
    - target: {fileID: 448446, guid: 6eb52968ab2779d4db7990fe0f754609, type: 3}
      propertyPath: m_LocalRotation.y
      value: -.119989268
      objectReference: {fileID: 0}
    - target: {fileID: 448446, guid: 6eb52968ab2779d4db7990fe0f754609, type: 3}
      propertyPath: m_LocalRotation.z
      value: -.147812739
      objectReference: {fileID: 0}
    - target: {fileID: 2394668, guid: 6eb52968ab2779d4db7990fe0f754609, type: 3}
      propertyPath: m_Materials.Array.data[0]
      value: 
      objectReference: {fileID: 2100000, guid: 02695f652946c7e47894bac87ea63a18, type: 2}
    m_RemovedComponents: []
  m_SourcePrefab: {fileID: 100100000, guid: 6eb52968ab2779d4db7990fe0f754609, type: 3}
--- !u!1001 &575593013
PrefabInstance:
  m_ObjectHideFlags: 0
  serializedVersion: 2
  m_Modification:
    m_TransformParent: {fileID: 0}
    m_Modifications:
    - target: {fileID: 176012, guid: 6eb52968ab2779d4db7990fe0f754609, type: 3}
      propertyPath: m_Name
      value: Nebula_Large 4
      objectReference: {fileID: 0}
    - target: {fileID: 448446, guid: 6eb52968ab2779d4db7990fe0f754609, type: 3}
      propertyPath: m_RootOrder
      value: 10
      objectReference: {fileID: 0}
    - target: {fileID: 448446, guid: 6eb52968ab2779d4db7990fe0f754609, type: 3}
      propertyPath: m_LocalPosition.x
      value: 0
      objectReference: {fileID: 0}
    - target: {fileID: 448446, guid: 6eb52968ab2779d4db7990fe0f754609, type: 3}
      propertyPath: m_LocalPosition.y
      value: 0
      objectReference: {fileID: 0}
    - target: {fileID: 448446, guid: 6eb52968ab2779d4db7990fe0f754609, type: 3}
      propertyPath: m_LocalPosition.z
      value: 0
      objectReference: {fileID: 0}
    - target: {fileID: 448446, guid: 6eb52968ab2779d4db7990fe0f754609, type: 3}
      propertyPath: m_LocalRotation.w
      value: .588694155
      objectReference: {fileID: 0}
    - target: {fileID: 448446, guid: 6eb52968ab2779d4db7990fe0f754609, type: 3}
      propertyPath: m_LocalRotation.x
      value: .697912216
      objectReference: {fileID: 0}
    - target: {fileID: 448446, guid: 6eb52968ab2779d4db7990fe0f754609, type: 3}
      propertyPath: m_LocalRotation.y
      value: -.298385859
      objectReference: {fileID: 0}
    - target: {fileID: 448446, guid: 6eb52968ab2779d4db7990fe0f754609, type: 3}
      propertyPath: m_LocalRotation.z
      value: -.278071374
      objectReference: {fileID: 0}
    - target: {fileID: 2394668, guid: 6eb52968ab2779d4db7990fe0f754609, type: 3}
      propertyPath: m_Materials.Array.data[0]
      value: 
      objectReference: {fileID: 2100000, guid: 02695f652946c7e47894bac87ea63a18, type: 2}
    m_RemovedComponents: []
  m_SourcePrefab: {fileID: 100100000, guid: 6eb52968ab2779d4db7990fe0f754609, type: 3}
--- !u!1001 &703497760
PrefabInstance:
  m_ObjectHideFlags: 0
  serializedVersion: 2
  m_Modification:
    m_TransformParent: {fileID: 0}
    m_Modifications:
    - target: {fileID: 484066, guid: c49caf18677eba3478784cd2f08b98b8, type: 3}
      propertyPath: m_RootOrder
      value: 0
      objectReference: {fileID: 0}
    - target: {fileID: 484066, guid: c49caf18677eba3478784cd2f08b98b8, type: 3}
      propertyPath: m_LocalScale.x
      value: 200.487534
      objectReference: {fileID: 0}
    - target: {fileID: 484066, guid: c49caf18677eba3478784cd2f08b98b8, type: 3}
      propertyPath: m_LocalScale.y
      value: 200.487625
      objectReference: {fileID: 0}
    - target: {fileID: 484066, guid: c49caf18677eba3478784cd2f08b98b8, type: 3}
      propertyPath: m_LocalScale.z
      value: 200.487625
      objectReference: {fileID: 0}
    - target: {fileID: 484066, guid: c49caf18677eba3478784cd2f08b98b8, type: 3}
      propertyPath: m_LocalPosition.x
      value: 12.1999998
      objectReference: {fileID: 0}
    - target: {fileID: 484066, guid: c49caf18677eba3478784cd2f08b98b8, type: 3}
      propertyPath: m_LocalPosition.y
      value: 3.5999999
      objectReference: {fileID: 0}
    - target: {fileID: 484066, guid: c49caf18677eba3478784cd2f08b98b8, type: 3}
      propertyPath: m_LocalPosition.z
      value: -55.4000015
      objectReference: {fileID: 0}
    - target: {fileID: 484066, guid: c49caf18677eba3478784cd2f08b98b8, type: 3}
      propertyPath: m_LocalRotation.w
      value: -.817424655
      objectReference: {fileID: 0}
    - target: {fileID: 484066, guid: c49caf18677eba3478784cd2f08b98b8, type: 3}
      propertyPath: m_LocalRotation.x
      value: .12832348
      objectReference: {fileID: 0}
    - target: {fileID: 484066, guid: c49caf18677eba3478784cd2f08b98b8, type: 3}
      propertyPath: m_LocalRotation.y
      value: -.288389087
      objectReference: {fileID: 0}
    - target: {fileID: 484066, guid: c49caf18677eba3478784cd2f08b98b8, type: 3}
      propertyPath: m_LocalRotation.z
      value: -.481852531
      objectReference: {fileID: 0}
    m_RemovedComponents: []
  m_SourcePrefab: {fileID: 100100000, guid: c49caf18677eba3478784cd2f08b98b8, type: 3}
--- !u!1001 &734704261
PrefabInstance:
  m_ObjectHideFlags: 0
  serializedVersion: 2
  m_Modification:
    m_TransformParent: {fileID: 0}
    m_Modifications:
    - target: {fileID: 176012, guid: 6eb52968ab2779d4db7990fe0f754609, type: 3}
      propertyPath: m_Name
      value: Nebula_Large 5
      objectReference: {fileID: 0}
    - target: {fileID: 448446, guid: 6eb52968ab2779d4db7990fe0f754609, type: 3}
      propertyPath: m_RootOrder
      value: 13
      objectReference: {fileID: 0}
    - target: {fileID: 448446, guid: 6eb52968ab2779d4db7990fe0f754609, type: 3}
      propertyPath: m_LocalPosition.x
      value: 0
      objectReference: {fileID: 0}
    - target: {fileID: 448446, guid: 6eb52968ab2779d4db7990fe0f754609, type: 3}
      propertyPath: m_LocalPosition.y
      value: 0
      objectReference: {fileID: 0}
    - target: {fileID: 448446, guid: 6eb52968ab2779d4db7990fe0f754609, type: 3}
      propertyPath: m_LocalPosition.z
      value: 0
      objectReference: {fileID: 0}
    - target: {fileID: 448446, guid: 6eb52968ab2779d4db7990fe0f754609, type: 3}
      propertyPath: m_LocalRotation.w
      value: .816273987
      objectReference: {fileID: 0}
    - target: {fileID: 448446, guid: 6eb52968ab2779d4db7990fe0f754609, type: 3}
      propertyPath: m_LocalRotation.x
      value: .421357155
      objectReference: {fileID: 0}
    - target: {fileID: 448446, guid: 6eb52968ab2779d4db7990fe0f754609, type: 3}
      propertyPath: m_LocalRotation.y
      value: -.370540291
      objectReference: {fileID: 0}
    - target: {fileID: 448446, guid: 6eb52968ab2779d4db7990fe0f754609, type: 3}
      propertyPath: m_LocalRotation.z
      value: .137313083
      objectReference: {fileID: 0}
    - target: {fileID: 2394668, guid: 6eb52968ab2779d4db7990fe0f754609, type: 3}
      propertyPath: m_Materials.Array.data[0]
      value: 
      objectReference: {fileID: 2100000, guid: a05fe2ec4b3588047a3edcdd174a8910, type: 2}
    m_RemovedComponents: []
  m_SourcePrefab: {fileID: 100100000, guid: 6eb52968ab2779d4db7990fe0f754609, type: 3}
--- !u!1001 &739420997
PrefabInstance:
  m_ObjectHideFlags: 0
  serializedVersion: 2
  m_Modification:
    m_TransformParent: {fileID: 0}
    m_Modifications:
    - target: {fileID: 176012, guid: 6eb52968ab2779d4db7990fe0f754609, type: 3}
      propertyPath: m_Name
      value: Nebula_Large 7
      objectReference: {fileID: 0}
    - target: {fileID: 448446, guid: 6eb52968ab2779d4db7990fe0f754609, type: 3}
      propertyPath: m_RootOrder
      value: 0
      objectReference: {fileID: 0}
    - target: {fileID: 448446, guid: 6eb52968ab2779d4db7990fe0f754609, type: 3}
      propertyPath: m_LocalPosition.x
      value: 0
      objectReference: {fileID: 0}
    - target: {fileID: 448446, guid: 6eb52968ab2779d4db7990fe0f754609, type: 3}
      propertyPath: m_LocalPosition.y
      value: 0
      objectReference: {fileID: 0}
    - target: {fileID: 448446, guid: 6eb52968ab2779d4db7990fe0f754609, type: 3}
      propertyPath: m_LocalPosition.z
      value: 0
      objectReference: {fileID: 0}
    - target: {fileID: 448446, guid: 6eb52968ab2779d4db7990fe0f754609, type: 3}
      propertyPath: m_LocalRotation.w
      value: -.0671286061
      objectReference: {fileID: 0}
    - target: {fileID: 448446, guid: 6eb52968ab2779d4db7990fe0f754609, type: 3}
      propertyPath: m_LocalRotation.x
      value: .422793478
      objectReference: {fileID: 0}
    - target: {fileID: 448446, guid: 6eb52968ab2779d4db7990fe0f754609, type: 3}
      propertyPath: m_LocalRotation.y
      value: -.185481369
      objectReference: {fileID: 0}
    - target: {fileID: 448446, guid: 6eb52968ab2779d4db7990fe0f754609, type: 3}
      propertyPath: m_LocalRotation.z
      value: -.884497702
      objectReference: {fileID: 0}
    - target: {fileID: 2394668, guid: 6eb52968ab2779d4db7990fe0f754609, type: 3}
      propertyPath: m_Materials.Array.data[0]
      value: 
      objectReference: {fileID: 2100000, guid: 02695f652946c7e47894bac87ea63a18, type: 2}
    m_RemovedComponents: []
  m_SourcePrefab: {fileID: 100100000, guid: 6eb52968ab2779d4db7990fe0f754609, type: 3}
--- !u!1001 &810475120
PrefabInstance:
  m_ObjectHideFlags: 0
  serializedVersion: 2
  m_Modification:
    m_TransformParent: {fileID: 0}
    m_Modifications:
    - target: {fileID: 437266, guid: 5cc99f8313e92c2468387dfd5a6f241e, type: 3}
      propertyPath: m_RootOrder
      value: 4
      objectReference: {fileID: 0}
    - target: {fileID: 437266, guid: 5cc99f8313e92c2468387dfd5a6f241e, type: 3}
      propertyPath: m_LocalScale.x
      value: 38.7035255
      objectReference: {fileID: 0}
    - target: {fileID: 437266, guid: 5cc99f8313e92c2468387dfd5a6f241e, type: 3}
      propertyPath: m_LocalPosition.x
      value: -37.7000008
      objectReference: {fileID: 0}
    - target: {fileID: 437266, guid: 5cc99f8313e92c2468387dfd5a6f241e, type: 3}
      propertyPath: m_LocalPosition.y
      value: -26.7000008
      objectReference: {fileID: 0}
    - target: {fileID: 437266, guid: 5cc99f8313e92c2468387dfd5a6f241e, type: 3}
      propertyPath: m_LocalPosition.z
      value: 39.7999992
      objectReference: {fileID: 0}
    - target: {fileID: 437266, guid: 5cc99f8313e92c2468387dfd5a6f241e, type: 3}
      propertyPath: m_LocalRotation.w
      value: .872105002
      objectReference: {fileID: 0}
    - target: {fileID: 437266, guid: 5cc99f8313e92c2468387dfd5a6f241e, type: 3}
      propertyPath: m_LocalRotation.x
      value: .20083189
      objectReference: {fileID: 0}
    - target: {fileID: 437266, guid: 5cc99f8313e92c2468387dfd5a6f241e, type: 3}
      propertyPath: m_LocalRotation.y
      value: .373923063
      objectReference: {fileID: 0}
    - target: {fileID: 437266, guid: 5cc99f8313e92c2468387dfd5a6f241e, type: 3}
      propertyPath: m_LocalRotation.z
      value: .243476927
      objectReference: {fileID: 0}
    m_RemovedComponents: []
  m_SourcePrefab: {fileID: 100100000, guid: 5cc99f8313e92c2468387dfd5a6f241e, type: 3}
--- !u!1001 &972173409
PrefabInstance:
  m_ObjectHideFlags: 0
  serializedVersion: 2
  m_Modification:
    m_TransformParent: {fileID: 0}
    m_Modifications:
    - target: {fileID: 499520, guid: b696a85a1bdab3d4096cfcbcc7e4fe38, type: 3}
      propertyPath: m_RootOrder
      value: 16
      objectReference: {fileID: 0}
    - target: {fileID: 499520, guid: b696a85a1bdab3d4096cfcbcc7e4fe38, type: 3}
      propertyPath: m_LocalPosition.x
      value: 0
      objectReference: {fileID: 0}
    - target: {fileID: 499520, guid: b696a85a1bdab3d4096cfcbcc7e4fe38, type: 3}
      propertyPath: m_LocalPosition.y
      value: 0
      objectReference: {fileID: 0}
    - target: {fileID: 499520, guid: b696a85a1bdab3d4096cfcbcc7e4fe38, type: 3}
      propertyPath: m_LocalPosition.z
      value: 0
      objectReference: {fileID: 0}
    - target: {fileID: 499520, guid: b696a85a1bdab3d4096cfcbcc7e4fe38, type: 3}
      propertyPath: m_LocalRotation.w
      value: -.0290382802
      objectReference: {fileID: 0}
    - target: {fileID: 499520, guid: b696a85a1bdab3d4096cfcbcc7e4fe38, type: 3}
      propertyPath: m_LocalRotation.x
      value: .55697763
      objectReference: {fileID: 0}
    - target: {fileID: 499520, guid: b696a85a1bdab3d4096cfcbcc7e4fe38, type: 3}
      propertyPath: m_LocalRotation.y
      value: -.530017138
      objectReference: {fileID: 0}
    - target: {fileID: 499520, guid: b696a85a1bdab3d4096cfcbcc7e4fe38, type: 3}
      propertyPath: m_LocalRotation.z
      value: -.638760209
      objectReference: {fileID: 0}
    - target: {fileID: 2388018, guid: b696a85a1bdab3d4096cfcbcc7e4fe38, type: 3}
      propertyPath: m_Materials.Array.data[0]
      value: 
      objectReference: {fileID: 2100000, guid: 272e34df9fd985b45912c5aede7d17f9, type: 2}
    m_RemovedComponents: []
  m_SourcePrefab: {fileID: 100100000, guid: b696a85a1bdab3d4096cfcbcc7e4fe38, type: 3}
--- !u!1001 &1043564003
PrefabInstance:
  m_ObjectHideFlags: 0
  serializedVersion: 2
  m_Modification:
    m_TransformParent: {fileID: 0}
    m_Modifications:
    - target: {fileID: 488912, guid: a0bba650a2f3bc74296aad288c08d469, type: 3}
      propertyPath: m_RootOrder
      value: 1
      objectReference: {fileID: 0}
    - target: {fileID: 488912, guid: a0bba650a2f3bc74296aad288c08d469, type: 3}
      propertyPath: m_LocalScale.x
      value: .520403862
      objectReference: {fileID: 0}
    - target: {fileID: 488912, guid: a0bba650a2f3bc74296aad288c08d469, type: 3}
      propertyPath: m_LocalScale.y
      value: .520403922
      objectReference: {fileID: 0}
    - target: {fileID: 488912, guid: a0bba650a2f3bc74296aad288c08d469, type: 3}
      propertyPath: m_LocalScale.z
      value: .520403922
      objectReference: {fileID: 0}
    - target: {fileID: 488912, guid: a0bba650a2f3bc74296aad288c08d469, type: 3}
      propertyPath: m_LocalPosition.x
      value: 15.8000002
      objectReference: {fileID: 0}
    - target: {fileID: 488912, guid: a0bba650a2f3bc74296aad288c08d469, type: 3}
      propertyPath: m_LocalPosition.y
      value: 34
      objectReference: {fileID: 0}
    - target: {fileID: 488912, guid: a0bba650a2f3bc74296aad288c08d469, type: 3}
      propertyPath: m_LocalPosition.z
      value: -17.8999996
      objectReference: {fileID: 0}
    - target: {fileID: 488912, guid: a0bba650a2f3bc74296aad288c08d469, type: 3}
      propertyPath: m_LocalRotation.w
      value: .28999567
      objectReference: {fileID: 0}
    - target: {fileID: 488912, guid: a0bba650a2f3bc74296aad288c08d469, type: 3}
      propertyPath: m_LocalRotation.x
      value: .897484064
      objectReference: {fileID: 0}
    - target: {fileID: 488912, guid: a0bba650a2f3bc74296aad288c08d469, type: 3}
      propertyPath: m_LocalRotation.y
      value: .06276384
      objectReference: {fileID: 0}
    - target: {fileID: 488912, guid: a0bba650a2f3bc74296aad288c08d469, type: 3}
      propertyPath: m_LocalRotation.z
      value: -.326321453
      objectReference: {fileID: 0}
    - target: {fileID: 2390014, guid: a0bba650a2f3bc74296aad288c08d469, type: 3}
      propertyPath: m_Materials.Array.data[0]
      value: 
      objectReference: {fileID: 2100000, guid: 019b12f362f334242b27869d2af226dc, type: 2}
    m_RemovedComponents: []
  m_SourcePrefab: {fileID: 100100000, guid: a0bba650a2f3bc74296aad288c08d469, type: 3}
--- !u!1001 &1133589918
PrefabInstance:
  m_ObjectHideFlags: 0
  serializedVersion: 2
  m_Modification:
    m_TransformParent: {fileID: 0}
    m_Modifications:
    - target: {fileID: 180238, guid: c49caf18677eba3478784cd2f08b98b8, type: 3}
      propertyPath: m_Name
      value: Asteroid_G 2
      objectReference: {fileID: 0}
    - target: {fileID: 484066, guid: c49caf18677eba3478784cd2f08b98b8, type: 3}
      propertyPath: m_RootOrder
      value: 9
      objectReference: {fileID: 0}
    - target: {fileID: 484066, guid: c49caf18677eba3478784cd2f08b98b8, type: 3}
      propertyPath: m_LocalScale.x
      value: 200.487534
      objectReference: {fileID: 0}
    - target: {fileID: 484066, guid: c49caf18677eba3478784cd2f08b98b8, type: 3}
      propertyPath: m_LocalScale.y
      value: 200.487625
      objectReference: {fileID: 0}
    - target: {fileID: 484066, guid: c49caf18677eba3478784cd2f08b98b8, type: 3}
      propertyPath: m_LocalScale.z
      value: 200.487625
      objectReference: {fileID: 0}
    - target: {fileID: 484066, guid: c49caf18677eba3478784cd2f08b98b8, type: 3}
      propertyPath: m_LocalPosition.x
      value: -4.63999987
      objectReference: {fileID: 0}
    - target: {fileID: 484066, guid: c49caf18677eba3478784cd2f08b98b8, type: 3}
      propertyPath: m_LocalPosition.y
      value: -4.0999999
      objectReference: {fileID: 0}
    - target: {fileID: 484066, guid: c49caf18677eba3478784cd2f08b98b8, type: 3}
      propertyPath: m_LocalPosition.z
      value: -53.1699982
      objectReference: {fileID: 0}
    - target: {fileID: 484066, guid: c49caf18677eba3478784cd2f08b98b8, type: 3}
      propertyPath: m_LocalRotation.w
      value: .423997581
      objectReference: {fileID: 0}
    - target: {fileID: 484066, guid: c49caf18677eba3478784cd2f08b98b8, type: 3}
      propertyPath: m_LocalRotation.x
      value: -.829807758
      objectReference: {fileID: 0}
    - target: {fileID: 484066, guid: c49caf18677eba3478784cd2f08b98b8, type: 3}
      propertyPath: m_LocalRotation.y
      value: .0310880169
      objectReference: {fileID: 0}
    - target: {fileID: 484066, guid: c49caf18677eba3478784cd2f08b98b8, type: 3}
      propertyPath: m_LocalRotation.z
      value: -.361495167
      objectReference: {fileID: 0}
    m_RemovedComponents: []
  m_SourcePrefab: {fileID: 100100000, guid: c49caf18677eba3478784cd2f08b98b8, type: 3}
--- !u!1001 &1133794459
PrefabInstance:
  m_ObjectHideFlags: 0
  serializedVersion: 2
  m_Modification:
    m_TransformParent: {fileID: 0}
    m_Modifications:
    - target: {fileID: 444136, guid: ece113bb09a725547ad15c6e1794fbe0, type: 3}
      propertyPath: m_RootOrder
      value: 8
      objectReference: {fileID: 0}
    - target: {fileID: 444136, guid: ece113bb09a725547ad15c6e1794fbe0, type: 3}
      propertyPath: m_LocalScale.x
      value: 107.162117
      objectReference: {fileID: 0}
    - target: {fileID: 444136, guid: ece113bb09a725547ad15c6e1794fbe0, type: 3}
      propertyPath: m_LocalScale.y
      value: 107.16217
      objectReference: {fileID: 0}
    - target: {fileID: 444136, guid: ece113bb09a725547ad15c6e1794fbe0, type: 3}
      propertyPath: m_LocalScale.z
      value: 107.16217
      objectReference: {fileID: 0}
    - target: {fileID: 444136, guid: ece113bb09a725547ad15c6e1794fbe0, type: 3}
      propertyPath: m_LocalPosition.x
      value: -5.30999994
      objectReference: {fileID: 0}
    - target: {fileID: 444136, guid: ece113bb09a725547ad15c6e1794fbe0, type: 3}
      propertyPath: m_LocalPosition.y
      value: 4.75
      objectReference: {fileID: 0}
    - target: {fileID: 444136, guid: ece113bb09a725547ad15c6e1794fbe0, type: 3}
      propertyPath: m_LocalPosition.z
      value: -60.6899986
      objectReference: {fileID: 0}
    - target: {fileID: 444136, guid: ece113bb09a725547ad15c6e1794fbe0, type: 3}
      propertyPath: m_LocalRotation.w
      value: 1
      objectReference: {fileID: 0}
    - target: {fileID: 444136, guid: ece113bb09a725547ad15c6e1794fbe0, type: 3}
      propertyPath: m_LocalRotation.x
      value: 0
      objectReference: {fileID: 0}
    - target: {fileID: 444136, guid: ece113bb09a725547ad15c6e1794fbe0, type: 3}
      propertyPath: m_LocalRotation.y
      value: 0
      objectReference: {fileID: 0}
    - target: {fileID: 444136, guid: ece113bb09a725547ad15c6e1794fbe0, type: 3}
      propertyPath: m_LocalRotation.z
      value: 0
      objectReference: {fileID: 0}
    m_RemovedComponents: []
  m_SourcePrefab: {fileID: 100100000, guid: ece113bb09a725547ad15c6e1794fbe0, type: 3}
--- !u!1001 &1515880838
PrefabInstance:
  m_ObjectHideFlags: 0
  serializedVersion: 2
  m_Modification:
    m_TransformParent: {fileID: 0}
    m_Modifications:
    - target: {fileID: 448446, guid: 6eb52968ab2779d4db7990fe0f754609, type: 3}
      propertyPath: m_RootOrder
      value: 3
      objectReference: {fileID: 0}
    - target: {fileID: 448446, guid: 6eb52968ab2779d4db7990fe0f754609, type: 3}
      propertyPath: m_LocalPosition.x
      value: 0
      objectReference: {fileID: 0}
    - target: {fileID: 448446, guid: 6eb52968ab2779d4db7990fe0f754609, type: 3}
      propertyPath: m_LocalPosition.y
      value: 0
      objectReference: {fileID: 0}
    - target: {fileID: 448446, guid: 6eb52968ab2779d4db7990fe0f754609, type: 3}
      propertyPath: m_LocalPosition.z
      value: 0
      objectReference: {fileID: 0}
    - target: {fileID: 448446, guid: 6eb52968ab2779d4db7990fe0f754609, type: 3}
      propertyPath: m_LocalRotation.w
      value: .759582818
      objectReference: {fileID: 0}
    - target: {fileID: 448446, guid: 6eb52968ab2779d4db7990fe0f754609, type: 3}
      propertyPath: m_LocalRotation.x
      value: .389512628
      objectReference: {fileID: 0}
    - target: {fileID: 448446, guid: 6eb52968ab2779d4db7990fe0f754609, type: 3}
      propertyPath: m_LocalRotation.y
      value: .313858539
      objectReference: {fileID: 0}
    - target: {fileID: 448446, guid: 6eb52968ab2779d4db7990fe0f754609, type: 3}
      propertyPath: m_LocalRotation.z
      value: -.415700316
      objectReference: {fileID: 0}
    - target: {fileID: 2394668, guid: 6eb52968ab2779d4db7990fe0f754609, type: 3}
      propertyPath: m_Materials.Array.data[0]
      value: 
      objectReference: {fileID: 2100000, guid: 02695f652946c7e47894bac87ea63a18, type: 2}
    m_RemovedComponents: []
  m_SourcePrefab: {fileID: 100100000, guid: 6eb52968ab2779d4db7990fe0f754609, type: 3}
--- !u!1001 &1593380456
PrefabInstance:
  m_ObjectHideFlags: 0
  serializedVersion: 2
  m_Modification:
    m_TransformParent: {fileID: 0}
    m_Modifications:
    - target: {fileID: 180238, guid: c49caf18677eba3478784cd2f08b98b8, type: 3}
      propertyPath: m_Name
      value: Asteroid_G 1
      objectReference: {fileID: 0}
    - target: {fileID: 484066, guid: c49caf18677eba3478784cd2f08b98b8, type: 3}
      propertyPath: m_RootOrder
      value: 1
      objectReference: {fileID: 0}
    - target: {fileID: 484066, guid: c49caf18677eba3478784cd2f08b98b8, type: 3}
      propertyPath: m_LocalScale.x
      value: 200.487534
      objectReference: {fileID: 0}
    - target: {fileID: 484066, guid: c49caf18677eba3478784cd2f08b98b8, type: 3}
      propertyPath: m_LocalScale.y
      value: 200.487625
      objectReference: {fileID: 0}
    - target: {fileID: 484066, guid: c49caf18677eba3478784cd2f08b98b8, type: 3}
      propertyPath: m_LocalScale.z
      value: 200.487625
      objectReference: {fileID: 0}
    - target: {fileID: 484066, guid: c49caf18677eba3478784cd2f08b98b8, type: 3}
      propertyPath: m_LocalPosition.x
      value: 1.44000006
      objectReference: {fileID: 0}
    - target: {fileID: 484066, guid: c49caf18677eba3478784cd2f08b98b8, type: 3}
      propertyPath: m_LocalPosition.y
      value: 3.5999999
      objectReference: {fileID: 0}
    - target: {fileID: 484066, guid: c49caf18677eba3478784cd2f08b98b8, type: 3}
      propertyPath: m_LocalPosition.z
      value: -53.1699982
      objectReference: {fileID: 0}
    - target: {fileID: 484066, guid: c49caf18677eba3478784cd2f08b98b8, type: 3}
      propertyPath: m_LocalRotation.w
      value: -.043723844
      objectReference: {fileID: 0}
    - target: {fileID: 484066, guid: c49caf18677eba3478784cd2f08b98b8, type: 3}
      propertyPath: m_LocalRotation.x
      value: -.692701399
      objectReference: {fileID: 0}
    - target: {fileID: 484066, guid: c49caf18677eba3478784cd2f08b98b8, type: 3}
      propertyPath: m_LocalRotation.y
      value: -.336263925
      objectReference: {fileID: 0}
    - target: {fileID: 484066, guid: c49caf18677eba3478784cd2f08b98b8, type: 3}
      propertyPath: m_LocalRotation.z
      value: -.636537194
      objectReference: {fileID: 0}
    m_RemovedComponents: []
  m_SourcePrefab: {fileID: 100100000, guid: c49caf18677eba3478784cd2f08b98b8, type: 3}
--- !u!1001 &1678737614
PrefabInstance:
  m_ObjectHideFlags: 0
  serializedVersion: 2
  m_Modification:
    m_TransformParent: {fileID: 0}
    m_Modifications:
    - target: {fileID: 176012, guid: 6eb52968ab2779d4db7990fe0f754609, type: 3}
      propertyPath: m_Name
      value: Nebula_Large 3
      objectReference: {fileID: 0}
    - target: {fileID: 448446, guid: 6eb52968ab2779d4db7990fe0f754609, type: 3}
      propertyPath: m_RootOrder
      value: 11
      objectReference: {fileID: 0}
    - target: {fileID: 448446, guid: 6eb52968ab2779d4db7990fe0f754609, type: 3}
      propertyPath: m_LocalPosition.x
      value: 0
      objectReference: {fileID: 0}
    - target: {fileID: 448446, guid: 6eb52968ab2779d4db7990fe0f754609, type: 3}
      propertyPath: m_LocalPosition.y
      value: 0
      objectReference: {fileID: 0}
    - target: {fileID: 448446, guid: 6eb52968ab2779d4db7990fe0f754609, type: 3}
      propertyPath: m_LocalPosition.z
      value: 0
      objectReference: {fileID: 0}
    - target: {fileID: 448446, guid: 6eb52968ab2779d4db7990fe0f754609, type: 3}
      propertyPath: m_LocalRotation.w
      value: .47888723
      objectReference: {fileID: 0}
    - target: {fileID: 448446, guid: 6eb52968ab2779d4db7990fe0f754609, type: 3}
      propertyPath: m_LocalRotation.x
      value: .653520226
      objectReference: {fileID: 0}
    - target: {fileID: 448446, guid: 6eb52968ab2779d4db7990fe0f754609, type: 3}
      propertyPath: m_LocalRotation.y
      value: .0683806166
      objectReference: {fileID: 0}
    - target: {fileID: 448446, guid: 6eb52968ab2779d4db7990fe0f754609, type: 3}
      propertyPath: m_LocalRotation.z
      value: -.58215332
      objectReference: {fileID: 0}
    - target: {fileID: 2394668, guid: 6eb52968ab2779d4db7990fe0f754609, type: 3}
      propertyPath: m_Materials.Array.data[0]
      value: 
      objectReference: {fileID: 2100000, guid: a05fe2ec4b3588047a3edcdd174a8910, type: 2}
    m_RemovedComponents: []
  m_SourcePrefab: {fileID: 100100000, guid: 6eb52968ab2779d4db7990fe0f754609, type: 3}
--- !u!1001 &1774152766
PrefabInstance:
  m_ObjectHideFlags: 0
  serializedVersion: 2
  m_Modification:
    m_TransformParent: {fileID: 0}
    m_Modifications:
    - target: {fileID: 418172, guid: 01538f1c3c3e04848889987a7bca8e63, type: 3}
      propertyPath: m_RootOrder
      value: 5
      objectReference: {fileID: 0}
    - target: {fileID: 418172, guid: 01538f1c3c3e04848889987a7bca8e63, type: 3}
      propertyPath: m_LocalPosition.x
      value: 28.1000004
      objectReference: {fileID: 0}
    - target: {fileID: 418172, guid: 01538f1c3c3e04848889987a7bca8e63, type: 3}
      propertyPath: m_LocalPosition.y
      value: 23.2999992
      objectReference: {fileID: 0}
    - target: {fileID: 418172, guid: 01538f1c3c3e04848889987a7bca8e63, type: 3}
      propertyPath: m_LocalPosition.z
      value: 50.5600014
      objectReference: {fileID: 0}
    - target: {fileID: 418172, guid: 01538f1c3c3e04848889987a7bca8e63, type: 3}
      propertyPath: m_LocalRotation.w
      value: 1
      objectReference: {fileID: 0}
    - target: {fileID: 418172, guid: 01538f1c3c3e04848889987a7bca8e63, type: 3}
      propertyPath: m_LocalRotation.x
      value: 0
      objectReference: {fileID: 0}
    - target: {fileID: 418172, guid: 01538f1c3c3e04848889987a7bca8e63, type: 3}
      propertyPath: m_LocalRotation.y
      value: 0
      objectReference: {fileID: 0}
    - target: {fileID: 418172, guid: 01538f1c3c3e04848889987a7bca8e63, type: 3}
      propertyPath: m_LocalRotation.z
      value: 0
      objectReference: {fileID: 0}
    m_RemovedComponents: []
  m_SourcePrefab: {fileID: 100100000, guid: 01538f1c3c3e04848889987a7bca8e63, type: 3}
--- !u!1 &1893390272
GameObject:
  m_ObjectHideFlags: 0
  m_CorrespondingSourceObject: {fileID: 0}
  m_PrefabInstance: {fileID: 0}
  m_PrefabAsset: {fileID: 0}
  serializedVersion: 6
  m_Component:
  - component: {fileID: 1893390277}
  - component: {fileID: 1893390276}
  - component: {fileID: 1893390274}
  - component: {fileID: 1893390273}
  m_Layer: 0
  m_Name: Main Camera
  m_TagString: MainCamera
  m_Icon: {fileID: 0}
  m_NavMeshLayer: 0
  m_StaticEditorFlags: 0
  m_IsActive: 1
--- !u!81 &1893390273
AudioListener:
  m_ObjectHideFlags: 0
  m_CorrespondingSourceObject: {fileID: 0}
  m_PrefabInstance: {fileID: 0}
  m_PrefabAsset: {fileID: 0}
  m_GameObject: {fileID: 1893390272}
  m_Enabled: 1
--- !u!124 &1893390274
Behaviour:
  m_ObjectHideFlags: 0
  m_CorrespondingSourceObject: {fileID: 0}
  m_PrefabInstance: {fileID: 0}
  m_PrefabAsset: {fileID: 0}
  m_GameObject: {fileID: 1893390272}
  m_Enabled: 1
--- !u!20 &1893390276
Camera:
  m_ObjectHideFlags: 0
  m_CorrespondingSourceObject: {fileID: 0}
  m_PrefabInstance: {fileID: 0}
  m_PrefabAsset: {fileID: 0}
  m_GameObject: {fileID: 1893390272}
  m_Enabled: 1
  serializedVersion: 2
  m_ClearFlags: 1
  m_BackGroundColor: {r: 0.19215687, g: 0.3019608, b: 0.4745098, a: 0.019607844}
  m_projectionMatrixMode: 1
  m_GateFitMode: 2
  m_FOVAxisMode: 0
  m_SensorSize: {x: 36, y: 24}
  m_LensShift: {x: 0, y: 0}
  m_FocalLength: 50
  m_NormalizedViewPortRect:
    serializedVersion: 2
    x: 0
    y: 0
    width: 1
    height: 1
  near clip plane: 0.3
  far clip plane: 1000
  field of view: 60
  orthographic: 0
  orthographic size: 5
  m_Depth: -1
  m_CullingMask:
    serializedVersion: 2
    m_Bits: 4294967295
  m_RenderingPath: -1
  m_TargetTexture: {fileID: 0}
  m_TargetDisplay: 0
  m_TargetEye: 3
  m_HDR: 0
  m_AllowMSAA: 1
  m_AllowDynamicResolution: 0
  m_ForceIntoRT: 0
  m_OcclusionCulling: 1
  m_StereoConvergence: 10
  m_StereoSeparation: 0.022
--- !u!4 &1893390277
Transform:
  m_ObjectHideFlags: 0
  m_CorrespondingSourceObject: {fileID: 0}
  m_PrefabInstance: {fileID: 0}
  m_PrefabAsset: {fileID: 0}
  m_GameObject: {fileID: 1893390272}
  m_LocalRotation: {x: 0.09748988, y: 0, z: 0, w: 0.9952366}
  m_LocalPosition: {x: 0, y: 9.42, z: -70.98}
  m_LocalScale: {x: 1, y: 1, z: 1}
  m_ConstrainProportionsScale: 0
  m_Children: []
  m_Father: {fileID: 0}
  m_RootOrder: 20
  m_LocalEulerAnglesHint: {x: 0, y: 0, z: 0}
--- !u!1001 &1934453292
PrefabInstance:
  m_ObjectHideFlags: 0
  serializedVersion: 2
  m_Modification:
    m_TransformParent: {fileID: 0}
    m_Modifications:
    - target: {fileID: 418466, guid: 836770c02ea056347a2033b490fe4f0d, type: 3}
      propertyPath: m_RootOrder
      value: 14
      objectReference: {fileID: 0}
    - target: {fileID: 418466, guid: 836770c02ea056347a2033b490fe4f0d, type: 3}
      propertyPath: m_LocalScale.x
      value: 1
      objectReference: {fileID: 0}
    - target: {fileID: 418466, guid: 836770c02ea056347a2033b490fe4f0d, type: 3}
      propertyPath: m_LocalScale.y
      value: 1
      objectReference: {fileID: 0}
    - target: {fileID: 418466, guid: 836770c02ea056347a2033b490fe4f0d, type: 3}
      propertyPath: m_LocalScale.z
      value: 1
      objectReference: {fileID: 0}
    - target: {fileID: 418466, guid: 836770c02ea056347a2033b490fe4f0d, type: 3}
      propertyPath: m_LocalPosition.x
      value: -29.2000008
      objectReference: {fileID: 0}
    - target: {fileID: 418466, guid: 836770c02ea056347a2033b490fe4f0d, type: 3}
      propertyPath: m_LocalPosition.y
      value: 7.9000001
      objectReference: {fileID: 0}
    - target: {fileID: 418466, guid: 836770c02ea056347a2033b490fe4f0d, type: 3}
      propertyPath: m_LocalPosition.z
      value: -14.6999998
      objectReference: {fileID: 0}
    - target: {fileID: 418466, guid: 836770c02ea056347a2033b490fe4f0d, type: 3}
      propertyPath: m_LocalRotation.w
      value: 1
      objectReference: {fileID: 0}
    - target: {fileID: 418466, guid: 836770c02ea056347a2033b490fe4f0d, type: 3}
      propertyPath: m_LocalRotation.x
      value: 0
      objectReference: {fileID: 0}
    - target: {fileID: 418466, guid: 836770c02ea056347a2033b490fe4f0d, type: 3}
      propertyPath: m_LocalRotation.y
      value: 0
      objectReference: {fileID: 0}
    - target: {fileID: 418466, guid: 836770c02ea056347a2033b490fe4f0d, type: 3}
      propertyPath: m_LocalRotation.z
      value: 0
      objectReference: {fileID: 0}
    m_RemovedComponents: []
  m_SourcePrefab: {fileID: 100100000, guid: 836770c02ea056347a2033b490fe4f0d, type: 3}
