%YAML 1.1
%TAG !u! tag:unity3d.com,2011:
--- !u!29 &1
OcclusionCullingSettings:
  m_ObjectHideFlags: 0
  serializedVersion: 2
  m_OcclusionBakeSettings:
    smallestOccluder: 5
    smallestHole: 0.25
    backfaceThreshold: 100
  m_SceneGUID: 00000000000000000000000000000000
  m_OcclusionCullingData: {fileID: 0}
--- !u!104 &2
RenderSettings:
  m_ObjectHideFlags: 0
  serializedVersion: 9
  m_Fog: 0
  m_FogColor: {r: 0.5, g: 0.5, b: 0.5, a: 1}
  m_FogMode: 3
  m_FogDensity: 0.01
  m_LinearFogStart: 0
  m_LinearFogEnd: 300
  m_AmbientSkyColor: {r: 0.212, g: 0.227, b: 0.259, a: 1}
  m_AmbientEquatorColor: {r: 0.114, g: 0.125, b: 0.133, a: 1}
  m_AmbientGroundColor: {r: 0.047, g: 0.043, b: 0.035, a: 1}
  m_AmbientIntensity: 1
  m_AmbientMode: 0
  m_SubtractiveShadowColor: {r: 0.42, g: 0.478, b: 0.627, a: 1}
  m_SkyboxMaterial: {fileID: 0}
  m_HaloStrength: 0.5
  m_FlareStrength: 1
  m_FlareFadeSpeed: 3
  m_HaloTexture: {fileID: 0}
  m_SpotCookie: {fileID: 10001, guid: 0000000000000000e000000000000000, type: 0}
  m_DefaultReflectionMode: 0
  m_DefaultReflectionResolution: 128
  m_ReflectionBounces: 1
  m_ReflectionIntensity: 1
  m_CustomReflection: {fileID: 0}
  m_Sun: {fileID: 0}
  m_IndirectSpecularColor: {r: 0, g: 0, b: 0, a: 1}
  m_UseRadianceAmbientProbe: 0
--- !u!157 &4
LightmapSettings:
  m_ObjectHideFlags: 0
  serializedVersion: 12
  m_GIWorkflowMode: 0
  m_GISettings:
    serializedVersion: 2
    m_BounceScale: 1
    m_IndirectOutputScale: 1
    m_AlbedoBoost: 1
    m_EnvironmentLightingMode: 0
    m_EnableBakedLightmaps: 1
    m_EnableRealtimeLightmaps: 1
  m_LightmapEditorSettings:
    serializedVersion: 12
    m_Resolution: 2
    m_BakeResolution: 40
    m_AtlasSize: 1024
    m_AO: 0
    m_AOMaxDistance: 1
    m_CompAOExponent: 0
    m_CompAOExponentDirect: 0
    m_ExtractAmbientOcclusion: 0
    m_Padding: 2
    m_LightmapParameters: {fileID: 0}
    m_LightmapsBakeMode: 1
    m_TextureCompression: 1
    m_FinalGather: 0
    m_FinalGatherFiltering: 1
    m_FinalGatherRayCount: 1024
    m_ReflectionCompression: 2
    m_MixedBakeMode: 1
    m_BakeBackend: 0
    m_PVRSampling: 1
    m_PVRDirectSampleCount: 32
    m_PVRSampleCount: 512
    m_PVRBounces: 2
    m_PVREnvironmentSampleCount: 512
    m_PVREnvironmentReferencePointCount: 2048
    m_PVRFilteringMode: 0
    m_PVRDenoiserTypeDirect: 0
    m_PVRDenoiserTypeIndirect: 0
    m_PVRDenoiserTypeAO: 0
    m_PVRFilterTypeDirect: 0
    m_PVRFilterTypeIndirect: 0
    m_PVRFilterTypeAO: 0
    m_PVREnvironmentMIS: 0
    m_PVRCulling: 1
    m_PVRFilteringGaussRadiusDirect: 1
    m_PVRFilteringGaussRadiusIndirect: 5
    m_PVRFilteringGaussRadiusAO: 2
    m_PVRFilteringAtrousPositionSigmaDirect: 0.5
    m_PVRFilteringAtrousPositionSigmaIndirect: 2
    m_PVRFilteringAtrousPositionSigmaAO: 1
    m_ExportTrainingData: 0
    m_TrainingDataDestination: TrainingData
    m_LightProbeSampleCountMultiplier: 4
  m_LightingDataAsset: {fileID: 0}
  m_LightingSettings: {fileID: 4890085278179872738, guid: 961cad3fd489a4067857d542887fc35c, type: 2}
--- !u!196 &5
NavMeshSettings:
  serializedVersion: 2
  m_ObjectHideFlags: 0
  m_BuildSettings:
    serializedVersion: 2
    agentTypeID: 0
    agentRadius: 0.5
    agentHeight: 2
    agentSlope: 45
    agentClimb: 0.4
    ledgeDropHeight: 0
    maxJumpAcrossDistance: 0
    minRegionArea: 2
    manualCellSize: 0
    cellSize: 0.16666667
    manualTileSize: 0
    tileSize: 256
    accuratePlacement: 0
    maxJobWorkers: 0
    preserveTilesOutsideBounds: 0
    debug:
      m_Flags: 0
  m_NavMeshData: {fileID: 0}
--- !u!1001 &397129625
PrefabInstance:
  m_ObjectHideFlags: 0
  serializedVersion: 2
  m_Modification:
    m_TransformParent: {fileID: 0}
    m_Modifications:
    - target: {fileID: 488912, guid: a0bba650a2f3bc74296aad288c08d469, type: 3}
      propertyPath: m_RootOrder
      value: 0
      objectReference: {fileID: 0}
    - target: {fileID: 488912, guid: a0bba650a2f3bc74296aad288c08d469, type: 3}
      propertyPath: m_LocalScale.x
      value: .585240483
      objectReference: {fileID: 0}
    - target: {fileID: 488912, guid: a0bba650a2f3bc74296aad288c08d469, type: 3}
      propertyPath: m_LocalScale.y
      value: .585240483
      objectReference: {fileID: 0}
    - target: {fileID: 488912, guid: a0bba650a2f3bc74296aad288c08d469, type: 3}
      propertyPath: m_LocalScale.z
      value: .585240483
      objectReference: {fileID: 0}
    - target: {fileID: 488912, guid: a0bba650a2f3bc74296aad288c08d469, type: 3}
      propertyPath: m_LocalPosition.x
      value: 30.8700008
      objectReference: {fileID: 0}
    - target: {fileID: 488912, guid: a0bba650a2f3bc74296aad288c08d469, type: 3}
      propertyPath: m_LocalPosition.y
      value: 37.9500008
      objectReference: {fileID: 0}
    - target: {fileID: 488912, guid: a0bba650a2f3bc74296aad288c08d469, type: 3}
      propertyPath: m_LocalPosition.z
      value: -.0799999982
      objectReference: {fileID: 0}
    - target: {fileID: 488912, guid: a0bba650a2f3bc74296aad288c08d469, type: 3}
      propertyPath: m_LocalRotation.w
      value: .4541848
      objectReference: {fileID: 0}
    - target: {fileID: 488912, guid: a0bba650a2f3bc74296aad288c08d469, type: 3}
      propertyPath: m_LocalRotation.x
      value: .800545216
      objectReference: {fileID: 0}
    - target: {fileID: 488912, guid: a0bba650a2f3bc74296aad288c08d469, type: 3}
      propertyPath: m_LocalRotation.y
      value: .238419995
      objectReference: {fileID: 0}
    - target: {fileID: 488912, guid: a0bba650a2f3bc74296aad288c08d469, type: 3}
      propertyPath: m_LocalRotation.z
      value: .309837729
      objectReference: {fileID: 0}
    - target: {fileID: 2390014, guid: a0bba650a2f3bc74296aad288c08d469, type: 3}
      propertyPath: m_Materials.Array.data[0]
      value: 
      objectReference: {fileID: 2100000, guid: 0281bf8d7621d6c40a73e84e341e80b3, type: 2}
    m_RemovedComponents: []
  m_SourcePrefab: {fileID: 100100000, guid: a0bba650a2f3bc74296aad288c08d469, type: 3}
--- !u!1001 &406477949
PrefabInstance:
  m_ObjectHideFlags: 0
  serializedVersion: 2
  m_Modification:
    m_TransformParent: {fileID: 0}
    m_Modifications:
    - target: {fileID: 486404, guid: 26e950ddae2da3a4581a7692739c06fc, type: 3}
      propertyPath: m_RootOrder
      value: 3
      objectReference: {fileID: 0}
    - target: {fileID: 486404, guid: 26e950ddae2da3a4581a7692739c06fc, type: 3}
      propertyPath: m_LocalScale.x
      value: 1.22414219
      objectReference: {fileID: 0}
    - target: {fileID: 486404, guid: 26e950ddae2da3a4581a7692739c06fc, type: 3}
      propertyPath: m_LocalScale.y
      value: 1.22414231
      objectReference: {fileID: 0}
    - target: {fileID: 486404, guid: 26e950ddae2da3a4581a7692739c06fc, type: 3}
      propertyPath: m_LocalScale.z
      value: 1.22414231
      objectReference: {fileID: 0}
    - target: {fileID: 486404, guid: 26e950ddae2da3a4581a7692739c06fc, type: 3}
      propertyPath: m_LocalPosition.x
      value: 7.86000013
      objectReference: {fileID: 0}
    - target: {fileID: 486404, guid: 26e950ddae2da3a4581a7692739c06fc, type: 3}
      propertyPath: m_LocalPosition.y
      value: -.99000001
      objectReference: {fileID: 0}
    - target: {fileID: 486404, guid: 26e950ddae2da3a4581a7692739c06fc, type: 3}
      propertyPath: m_LocalPosition.z
      value: 7.53000021
      objectReference: {fileID: 0}
    - target: {fileID: 486404, guid: 26e950ddae2da3a4581a7692739c06fc, type: 3}
      propertyPath: m_LocalRotation.w
      value: .988108695
      objectReference: {fileID: 0}
    - target: {fileID: 486404, guid: 26e950ddae2da3a4581a7692739c06fc, type: 3}
      propertyPath: m_LocalRotation.x
      value: -.0585842244
      objectReference: {fileID: 0}
    - target: {fileID: 486404, guid: 26e950ddae2da3a4581a7692739c06fc, type: 3}
      propertyPath: m_LocalRotation.y
      value: -.0868813694
      objectReference: {fileID: 0}
    - target: {fileID: 486404, guid: 26e950ddae2da3a4581a7692739c06fc, type: 3}
      propertyPath: m_LocalRotation.z
      value: .112520598
      objectReference: {fileID: 0}
    m_RemovedComponents: []
  m_SourcePrefab: {fileID: 100100000, guid: 26e950ddae2da3a4581a7692739c06fc, type: 3}
--- !u!1001 &619032347
PrefabInstance:
  m_ObjectHideFlags: 0
  serializedVersion: 2
  m_Modification:
    m_TransformParent: {fileID: 0}
    m_Modifications:
    - target: {fileID: 476934, guid: a6acb94124ef3b348ab02b76e97f1189, type: 3}
      propertyPath: m_RootOrder
      value: 6
      objectReference: {fileID: 0}
    - target: {fileID: 476934, guid: a6acb94124ef3b348ab02b76e97f1189, type: 3}
      propertyPath: m_LocalPosition.x
      value: 0
      objectReference: {fileID: 0}
    - target: {fileID: 476934, guid: a6acb94124ef3b348ab02b76e97f1189, type: 3}
      propertyPath: m_LocalPosition.y
      value: 0
      objectReference: {fileID: 0}
    - target: {fileID: 476934, guid: a6acb94124ef3b348ab02b76e97f1189, type: 3}
      propertyPath: m_LocalPosition.z
      value: 0
      objectReference: {fileID: 0}
    - target: {fileID: 476934, guid: a6acb94124ef3b348ab02b76e97f1189, type: 3}
      propertyPath: m_LocalRotation.w
      value: .824622989
      objectReference: {fileID: 0}
    - target: {fileID: 476934, guid: a6acb94124ef3b348ab02b76e97f1189, type: 3}
      propertyPath: m_LocalRotation.x
      value: .550961316
      objectReference: {fileID: 0}
    - target: {fileID: 476934, guid: a6acb94124ef3b348ab02b76e97f1189, type: 3}
      propertyPath: m_LocalRotation.y
      value: -.109600745
      objectReference: {fileID: 0}
    - target: {fileID: 476934, guid: a6acb94124ef3b348ab02b76e97f1189, type: 3}
      propertyPath: m_LocalRotation.z
      value: .0665298551
      objectReference: {fileID: 0}
    - target: {fileID: 2361502, guid: a6acb94124ef3b348ab02b76e97f1189, type: 3}
      propertyPath: m_Materials.Array.data[0]
      value: 
      objectReference: {fileID: 2100000, guid: d6938b912e9f2864fae95d7c177eac12, type: 2}
    m_RemovedComponents: []
  m_SourcePrefab: {fileID: 100100000, guid: a6acb94124ef3b348ab02b76e97f1189, type: 3}
--- !u!1 &675667106
GameObject:
  m_ObjectHideFlags: 0
  m_CorrespondingSourceObject: {fileID: 0}
  m_PrefabInstance: {fileID: 0}
  m_PrefabAsset: {fileID: 0}
  serializedVersion: 6
  m_Component:
  - component: {fileID: 675667111}
  - component: {fileID: 675667110}
  - component: {fileID: 675667108}
  - component: {fileID: 675667107}
  m_Layer: 0
  m_Name: Main Camera
  m_TagString: MainCamera
  m_Icon: {fileID: 0}
  m_NavMeshLayer: 0
  m_StaticEditorFlags: 0
  m_IsActive: 1
--- !u!81 &675667107
AudioListener:
  m_ObjectHideFlags: 0
  m_CorrespondingSourceObject: {fileID: 0}
  m_PrefabInstance: {fileID: 0}
  m_PrefabAsset: {fileID: 0}
  m_GameObject: {fileID: 675667106}
  m_Enabled: 1
--- !u!124 &675667108
Behaviour:
  m_ObjectHideFlags: 0
  m_CorrespondingSourceObject: {fileID: 0}
  m_PrefabInstance: {fileID: 0}
  m_PrefabAsset: {fileID: 0}
  m_GameObject: {fileID: 675667106}
  m_Enabled: 1
--- !u!20 &675667110
Camera:
  m_ObjectHideFlags: 0
  m_CorrespondingSourceObject: {fileID: 0}
  m_PrefabInstance: {fileID: 0}
  m_PrefabAsset: {fileID: 0}
  m_GameObject: {fileID: 675667106}
  m_Enabled: 1
  serializedVersion: 2
  m_ClearFlags: 1
  m_BackGroundColor: {r: 0.19215687, g: 0.3019608, b: 0.4745098, a: 0.019607844}
  m_projectionMatrixMode: 1
  m_GateFitMode: 2
  m_FOVAxisMode: 0
  m_SensorSize: {x: 36, y: 24}
  m_LensShift: {x: 0, y: 0}
  m_FocalLength: 50
  m_NormalizedViewPortRect:
    serializedVersion: 2
    x: 0
    y: 0
    width: 1
    height: 1
  near clip plane: 0.3
  far clip plane: 1000
  field of view: 60
  orthographic: 0
  orthographic size: 5
  m_Depth: -1
  m_CullingMask:
    serializedVersion: 2
    m_Bits: 4294967295
  m_RenderingPath: -1
  m_TargetTexture: {fileID: 0}
  m_TargetDisplay: 0
  m_TargetEye: 3
  m_HDR: 0
  m_AllowMSAA: 1
  m_AllowDynamicResolution: 0
  m_ForceIntoRT: 0
  m_OcclusionCulling: 1
  m_StereoConvergence: 10
  m_StereoSeparation: 0.022
--- !u!4 &675667111
Transform:
  m_ObjectHideFlags: 0
  m_CorrespondingSourceObject: {fileID: 0}
  m_PrefabInstance: {fileID: 0}
  m_PrefabAsset: {fileID: 0}
  m_GameObject: {fileID: 675667106}
  m_LocalRotation: {x: 0, y: 0, z: 0, w: 1}
  m_LocalPosition: {x: 0, y: 1, z: -10}
  m_LocalScale: {x: 1, y: 1, z: 1}
  m_ConstrainProportionsScale: 0
  m_Children: []
  m_Father: {fileID: 0}
  m_RootOrder: 13
  m_LocalEulerAnglesHint: {x: 0, y: 0, z: 0}
--- !u!1001 &691910644
PrefabInstance:
  m_ObjectHideFlags: 0
  serializedVersion: 2
  m_Modification:
    m_TransformParent: {fileID: 0}
    m_Modifications:
    - target: {fileID: 453146, guid: 410b5de8a6fad3b4491308f2a1c87efa, type: 3}
      propertyPath: m_RootOrder
      value: 13
      objectReference: {fileID: 0}
    - target: {fileID: 453146, guid: 410b5de8a6fad3b4491308f2a1c87efa, type: 3}
      propertyPath: m_LocalPosition.x
      value: 0
      objectReference: {fileID: 0}
    - target: {fileID: 453146, guid: 410b5de8a6fad3b4491308f2a1c87efa, type: 3}
      propertyPath: m_LocalPosition.y
      value: 0
      objectReference: {fileID: 0}
    - target: {fileID: 453146, guid: 410b5de8a6fad3b4491308f2a1c87efa, type: 3}
      propertyPath: m_LocalPosition.z
      value: 0
      objectReference: {fileID: 0}
    - target: {fileID: 453146, guid: 410b5de8a6fad3b4491308f2a1c87efa, type: 3}
      propertyPath: m_LocalRotation.w
      value: 1
      objectReference: {fileID: 0}
    - target: {fileID: 453146, guid: 410b5de8a6fad3b4491308f2a1c87efa, type: 3}
      propertyPath: m_LocalRotation.x
      value: 0
      objectReference: {fileID: 0}
    - target: {fileID: 453146, guid: 410b5de8a6fad3b4491308f2a1c87efa, type: 3}
      propertyPath: m_LocalRotation.y
      value: 0
      objectReference: {fileID: 0}
    - target: {fileID: 453146, guid: 410b5de8a6fad3b4491308f2a1c87efa, type: 3}
      propertyPath: m_LocalRotation.z
      value: 0
      objectReference: {fileID: 0}
    - target: {fileID: 2315806, guid: 410b5de8a6fad3b4491308f2a1c87efa, type: 3}
      propertyPath: m_Materials.Array.data[0]
      value: 
      objectReference: {fileID: 2100000, guid: b6cca299120e7b64286a9608a92754cc, type: 2}
    m_RemovedComponents: []
  m_SourcePrefab: {fileID: 100100000, guid: 410b5de8a6fad3b4491308f2a1c87efa, type: 3}
--- !u!1001 &882961440
PrefabInstance:
  m_ObjectHideFlags: 0
  serializedVersion: 2
  m_Modification:
    m_TransformParent: {fileID: 0}
    m_Modifications:
    - target: {fileID: 454596, guid: 5e146687c6a67f2418267f6d12ad2e83, type: 3}
      propertyPath: m_RootOrder
      value: 6
      objectReference: {fileID: 0}
    - target: {fileID: 454596, guid: 5e146687c6a67f2418267f6d12ad2e83, type: 3}
      propertyPath: m_LocalScale.x
      value: 1.22414219
      objectReference: {fileID: 0}
    - target: {fileID: 454596, guid: 5e146687c6a67f2418267f6d12ad2e83, type: 3}
      propertyPath: m_LocalScale.y
      value: 1.22414231
      objectReference: {fileID: 0}
    - target: {fileID: 454596, guid: 5e146687c6a67f2418267f6d12ad2e83, type: 3}
      propertyPath: m_LocalScale.z
      value: 1.22414231
      objectReference: {fileID: 0}
    - target: {fileID: 454596, guid: 5e146687c6a67f2418267f6d12ad2e83, type: 3}
      propertyPath: m_LocalPosition.x
      value: 7.80999994
      objectReference: {fileID: 0}
    - target: {fileID: 454596, guid: 5e146687c6a67f2418267f6d12ad2e83, type: 3}
      propertyPath: m_LocalPosition.y
      value: 0
      objectReference: {fileID: 0}
    - target: {fileID: 454596, guid: 5e146687c6a67f2418267f6d12ad2e83, type: 3}
      propertyPath: m_LocalPosition.z
      value: 7.48999977
      objectReference: {fileID: 0}
    - target: {fileID: 454596, guid: 5e146687c6a67f2418267f6d12ad2e83, type: 3}
      propertyPath: m_LocalRotation.w
      value: .988108695
      objectReference: {fileID: 0}
    - target: {fileID: 454596, guid: 5e146687c6a67f2418267f6d12ad2e83, type: 3}
      propertyPath: m_LocalRotation.x
      value: -.0585842244
      objectReference: {fileID: 0}
    - target: {fileID: 454596, guid: 5e146687c6a67f2418267f6d12ad2e83, type: 3}
      propertyPath: m_LocalRotation.y
      value: -.0868813694
      objectReference: {fileID: 0}
    - target: {fileID: 454596, guid: 5e146687c6a67f2418267f6d12ad2e83, type: 3}
      propertyPath: m_LocalRotation.z
      value: .112520598
      objectReference: {fileID: 0}
    m_RemovedComponents: []
  m_SourcePrefab: {fileID: 100100000, guid: 5e146687c6a67f2418267f6d12ad2e83, type: 3}
--- !u!1001 &914535768
PrefabInstance:
  m_ObjectHideFlags: 0
  serializedVersion: 2
  m_Modification:
    m_TransformParent: {fileID: 0}
    m_Modifications:
    - target: {fileID: 430450, guid: 0e66f862ac3e68c429da9f9aac1bb079, type: 3}
      propertyPath: m_RootOrder
      value: 0
      objectReference: {fileID: 0}
    - target: {fileID: 430450, guid: 0e66f862ac3e68c429da9f9aac1bb079, type: 3}
      propertyPath: m_LocalPosition.x
      value: 0
      objectReference: {fileID: 0}
    - target: {fileID: 430450, guid: 0e66f862ac3e68c429da9f9aac1bb079, type: 3}
      propertyPath: m_LocalPosition.y
      value: 0
      objectReference: {fileID: 0}
    - target: {fileID: 430450, guid: 0e66f862ac3e68c429da9f9aac1bb079, type: 3}
      propertyPath: m_LocalPosition.z
      value: -5.94999981
      objectReference: {fileID: 0}
    - target: {fileID: 430450, guid: 0e66f862ac3e68c429da9f9aac1bb079, type: 3}
      propertyPath: m_LocalRotation.w
      value: 1
      objectReference: {fileID: 0}
    - target: {fileID: 430450, guid: 0e66f862ac3e68c429da9f9aac1bb079, type: 3}
      propertyPath: m_LocalRotation.x
      value: 0
      objectReference: {fileID: 0}
    - target: {fileID: 430450, guid: 0e66f862ac3e68c429da9f9aac1bb079, type: 3}
      propertyPath: m_LocalRotation.y
      value: 0
      objectReference: {fileID: 0}
    - target: {fileID: 430450, guid: 0e66f862ac3e68c429da9f9aac1bb079, type: 3}
      propertyPath: m_LocalRotation.z
      value: 0
      objectReference: {fileID: 0}
    m_RemovedComponents: []
  m_SourcePrefab: {fileID: 100100000, guid: 0e66f862ac3e68c429da9f9aac1bb079, type: 3}
--- !u!1 &1082332029
GameObject:
  m_ObjectHideFlags: 0
  m_CorrespondingSourceObject: {fileID: 0}
  m_PrefabInstance: {fileID: 0}
  m_PrefabAsset: {fileID: 0}
  serializedVersion: 6
  m_Component:
  - component: {fileID: 1082332031}
  - component: {fileID: 1082332030}
  m_Layer: 0
  m_Name: Directional Light
  m_TagString: Untagged
  m_Icon: {fileID: 0}
  m_NavMeshLayer: 0
  m_StaticEditorFlags: 0
  m_IsActive: 1
--- !u!108 &1082332030
Light:
  m_ObjectHideFlags: 0
  m_CorrespondingSourceObject: {fileID: 0}
  m_PrefabInstance: {fileID: 0}
  m_PrefabAsset: {fileID: 0}
  m_GameObject: {fileID: 1082332029}
  m_Enabled: 1
  serializedVersion: 10
  m_Type: 1
  m_Shape: 0
  m_Color: {r: 1, g: 0.95686275, b: 0.8392157, a: 1}
  m_Intensity: 1
  m_Range: 10
  m_SpotAngle: 30
  m_InnerSpotAngle: 21.802082
  m_CookieSize: 10
  m_Shadows:
    m_Type: 2
    m_Resolution: -1
    m_CustomResolution: -1
    m_Strength: 1
    m_Bias: 0.05
    m_NormalBias: 0.4
    m_NearPlane: 0.2
    m_CullingMatrixOverride:
      e00: 1
      e01: 0
      e02: 0
      e03: 0
      e10: 0
      e11: 1
      e12: 0
      e13: 0
      e20: 0
      e21: 0
      e22: 1
      e23: 0
      e30: 0
      e31: 0
      e32: 0
      e33: 1
    m_UseCullingMatrixOverride: 0
  m_Cookie: {fileID: 0}
  m_DrawHalo: 0
  m_Flare: {fileID: 0}
  m_RenderMode: 0
  m_CullingMask:
    serializedVersion: 2
    m_Bits: 4294967295
  m_RenderingLayerMask: 1
  m_Lightmapping: 4
  m_LightShadowCasterMode: 0
  m_AreaSize: {x: 1, y: 1}
  m_BounceIntensity: 1
  m_ColorTemperature: 6570
  m_UseColorTemperature: 0
  m_BoundingSphereOverride: {x: 0, y: 0, z: 0, w: 0}
  m_UseBoundingSphereOverride: 0
  m_UseViewFrustumForShadowCasterCull: 1
  m_ShadowRadius: 0
  m_ShadowAngle: 0
--- !u!4 &1082332031
Transform:
  m_ObjectHideFlags: 0
  m_CorrespondingSourceObject: {fileID: 0}
  m_PrefabInstance: {fileID: 0}
  m_PrefabAsset: {fileID: 0}
  m_GameObject: {fileID: 1082332029}
  m_LocalRotation: {x: 0.20000538, y: 0.7961639, z: -0.106284805, w: 0.56109226}
  m_LocalPosition: {x: -61.6, y: 34.4, z: 25.4}
  m_LocalScale: {x: 1, y: 1, z: 1}
  m_ConstrainProportionsScale: 0
  m_Children: []
  m_Father: {fileID: 0}
  m_RootOrder: 14
  m_LocalEulerAnglesHint: {x: 0, y: 0, z: 0}
--- !u!1001 &1266782654
PrefabInstance:
  m_ObjectHideFlags: 0
  serializedVersion: 2
  m_Modification:
    m_TransformParent: {fileID: 0}
    m_Modifications:
    - target: {fileID: 109258, guid: c493d3d03cbce404cb4426d18901b4a2, type: 3}
      propertyPath: m_Name
      value: Nebula_Medium 2
      objectReference: {fileID: 0}
    - target: {fileID: 435914, guid: c493d3d03cbce404cb4426d18901b4a2, type: 3}
      propertyPath: m_RootOrder
      value: 0
      objectReference: {fileID: 0}
    - target: {fileID: 435914, guid: c493d3d03cbce404cb4426d18901b4a2, type: 3}
      propertyPath: m_LocalPosition.x
      value: 0
      objectReference: {fileID: 0}
    - target: {fileID: 435914, guid: c493d3d03cbce404cb4426d18901b4a2, type: 3}
      propertyPath: m_LocalPosition.y
      value: 0
      objectReference: {fileID: 0}
    - target: {fileID: 435914, guid: c493d3d03cbce404cb4426d18901b4a2, type: 3}
      propertyPath: m_LocalPosition.z
      value: 0
      objectReference: {fileID: 0}
    - target: {fileID: 435914, guid: c493d3d03cbce404cb4426d18901b4a2, type: 3}
      propertyPath: m_LocalRotation.w
      value: .605210781
      objectReference: {fileID: 0}
    - target: {fileID: 435914, guid: c493d3d03cbce404cb4426d18901b4a2, type: 3}
      propertyPath: m_LocalRotation.x
      value: .788415968
      objectReference: {fileID: 0}
    - target: {fileID: 435914, guid: c493d3d03cbce404cb4426d18901b4a2, type: 3}
      propertyPath: m_LocalRotation.y
      value: .0737028345
      objectReference: {fileID: 0}
    - target: {fileID: 435914, guid: c493d3d03cbce404cb4426d18901b4a2, type: 3}
      propertyPath: m_LocalRotation.z
      value: .0817810446
      objectReference: {fileID: 0}
    - target: {fileID: 2395338, guid: c493d3d03cbce404cb4426d18901b4a2, type: 3}
      propertyPath: m_Materials.Array.data[0]
      value: 
      objectReference: {fileID: 2100000, guid: ef53862a251c3ad4d95b2b376608ee3f, type: 2}
    m_RemovedComponents: []
  m_SourcePrefab: {fileID: 100100000, guid: c493d3d03cbce404cb4426d18901b4a2, type: 3}
--- !u!1001 &1289966230
PrefabInstance:
  m_ObjectHideFlags: 0
  serializedVersion: 2
  m_Modification:
    m_TransformParent: {fileID: 0}
    m_Modifications:
    - target: {fileID: 109258, guid: c493d3d03cbce404cb4426d18901b4a2, type: 3}
      propertyPath: m_Name
      value: Nebula_Medium 4
      objectReference: {fileID: 0}
    - target: {fileID: 435914, guid: c493d3d03cbce404cb4426d18901b4a2, type: 3}
      propertyPath: m_RootOrder
      value: 0
      objectReference: {fileID: 0}
    - target: {fileID: 435914, guid: c493d3d03cbce404cb4426d18901b4a2, type: 3}
      propertyPath: m_LocalPosition.x
      value: 0
      objectReference: {fileID: 0}
    - target: {fileID: 435914, guid: c493d3d03cbce404cb4426d18901b4a2, type: 3}
      propertyPath: m_LocalPosition.y
      value: 0
      objectReference: {fileID: 0}
    - target: {fileID: 435914, guid: c493d3d03cbce404cb4426d18901b4a2, type: 3}
      propertyPath: m_LocalPosition.z
      value: 0
      objectReference: {fileID: 0}
    - target: {fileID: 435914, guid: c493d3d03cbce404cb4426d18901b4a2, type: 3}
      propertyPath: m_LocalRotation.w
      value: .540954471
      objectReference: {fileID: 0}
    - target: {fileID: 435914, guid: c493d3d03cbce404cb4426d18901b4a2, type: 3}
      propertyPath: m_LocalRotation.x
      value: .779545963
      objectReference: {fileID: 0}
    - target: {fileID: 435914, guid: c493d3d03cbce404cb4426d18901b4a2, type: 3}
      propertyPath: m_LocalRotation.y
      value: -.170316651
      objectReference: {fileID: 0}
    - target: {fileID: 435914, guid: c493d3d03cbce404cb4426d18901b4a2, type: 3}
      propertyPath: m_LocalRotation.z
      value: .265835822
      objectReference: {fileID: 0}
    - target: {fileID: 2395338, guid: c493d3d03cbce404cb4426d18901b4a2, type: 3}
      propertyPath: m_Materials.Array.data[0]
      value: 
      objectReference: {fileID: 2100000, guid: 37a0a7a86d41b3e43b7a4fdb260ab66b, type: 2}
    m_RemovedComponents: []
  m_SourcePrefab: {fileID: 100100000, guid: c493d3d03cbce404cb4426d18901b4a2, type: 3}
--- !u!1001 &1371967417
PrefabInstance:
  m_ObjectHideFlags: 0
  serializedVersion: 2
  m_Modification:
    m_TransformParent: {fileID: 0}
    m_Modifications:
    - target: {fileID: 435914, guid: c493d3d03cbce404cb4426d18901b4a2, type: 3}
      propertyPath: m_RootOrder
      value: 5
      objectReference: {fileID: 0}
    - target: {fileID: 435914, guid: c493d3d03cbce404cb4426d18901b4a2, type: 3}
      propertyPath: m_LocalPosition.x
      value: 0
      objectReference: {fileID: 0}
    - target: {fileID: 435914, guid: c493d3d03cbce404cb4426d18901b4a2, type: 3}
      propertyPath: m_LocalPosition.y
      value: 0
      objectReference: {fileID: 0}
    - target: {fileID: 435914, guid: c493d3d03cbce404cb4426d18901b4a2, type: 3}
      propertyPath: m_LocalPosition.z
      value: 0
      objectReference: {fileID: 0}
    - target: {fileID: 435914, guid: c493d3d03cbce404cb4426d18901b4a2, type: 3}
      propertyPath: m_LocalRotation.w
      value: .752945244
      objectReference: {fileID: 0}
    - target: {fileID: 435914, guid: c493d3d03cbce404cb4426d18901b4a2, type: 3}
      propertyPath: m_LocalRotation.x
      value: .616009712
      objectReference: {fileID: 0}
    - target: {fileID: 435914, guid: c493d3d03cbce404cb4426d18901b4a2, type: 3}
      propertyPath: m_LocalRotation.y
      value: .146134585
      objectReference: {fileID: 0}
    - target: {fileID: 435914, guid: c493d3d03cbce404cb4426d18901b4a2, type: 3}
      propertyPath: m_LocalRotation.z
      value: -.179583743
      objectReference: {fileID: 0}
    - target: {fileID: 2395338, guid: c493d3d03cbce404cb4426d18901b4a2, type: 3}
      propertyPath: m_Materials.Array.data[0]
      value: 
      objectReference: {fileID: 2100000, guid: ef53862a251c3ad4d95b2b376608ee3f, type: 2}
    m_RemovedComponents: []
  m_SourcePrefab: {fileID: 100100000, guid: c493d3d03cbce404cb4426d18901b4a2, type: 3}
--- !u!1001 &1571043981
PrefabInstance:
  m_ObjectHideFlags: 0
  serializedVersion: 2
  m_Modification:
    m_TransformParent: {fileID: 0}
    m_Modifications:
    - target: {fileID: 489550, guid: f2f3120c1bdbe1048b22872d840de803, type: 3}
      propertyPath: m_RootOrder
      value: 1
      objectReference: {fileID: 0}
    - target: {fileID: 489550, guid: f2f3120c1bdbe1048b22872d840de803, type: 3}
      propertyPath: m_LocalScale.x
      value: .628881454
      objectReference: {fileID: 0}
    - target: {fileID: 489550, guid: f2f3120c1bdbe1048b22872d840de803, type: 3}
      propertyPath: m_LocalScale.y
      value: .628881276
      objectReference: {fileID: 0}
    - target: {fileID: 489550, guid: f2f3120c1bdbe1048b22872d840de803, type: 3}
      propertyPath: m_LocalScale.z
      value: .628881276
      objectReference: {fileID: 0}
    - target: {fileID: 489550, guid: f2f3120c1bdbe1048b22872d840de803, type: 3}
      propertyPath: m_LocalPosition.x
      value: -19.1000004
      objectReference: {fileID: 0}
    - target: {fileID: 489550, guid: f2f3120c1bdbe1048b22872d840de803, type: 3}
      propertyPath: m_LocalPosition.y
      value: -7
      objectReference: {fileID: 0}
    - target: {fileID: 489550, guid: f2f3120c1bdbe1048b22872d840de803, type: 3}
      propertyPath: m_LocalPosition.z
      value: 27.7999992
      objectReference: {fileID: 0}
    - target: {fileID: 489550, guid: f2f3120c1bdbe1048b22872d840de803, type: 3}
      propertyPath: m_LocalRotation.w
      value: .96802181
      objectReference: {fileID: 0}
    - target: {fileID: 489550, guid: f2f3120c1bdbe1048b22872d840de803, type: 3}
      propertyPath: m_LocalRotation.x
      value: -.0966010094
      objectReference: {fileID: 0}
    - target: {fileID: 489550, guid: f2f3120c1bdbe1048b22872d840de803, type: 3}
      propertyPath: m_LocalRotation.y
      value: -.22766149
      objectReference: {fileID: 0}
    - target: {fileID: 489550, guid: f2f3120c1bdbe1048b22872d840de803, type: 3}
      propertyPath: m_LocalRotation.z
      value: .0420996398
      objectReference: {fileID: 0}
    m_RemovedComponents: []
  m_SourcePrefab: {fileID: 100100000, guid: f2f3120c1bdbe1048b22872d840de803, type: 3}
--- !u!1001 &1859424811
PrefabInstance:
  m_ObjectHideFlags: 0
  serializedVersion: 2
  m_Modification:
    m_TransformParent: {fileID: 0}
    m_Modifications:
    - target: {fileID: 109258, guid: c493d3d03cbce404cb4426d18901b4a2, type: 3}
      propertyPath: m_Name
      value: Nebula_Medium 1
      objectReference: {fileID: 0}
    - target: {fileID: 435914, guid: c493d3d03cbce404cb4426d18901b4a2, type: 3}
      propertyPath: m_RootOrder
      value: 1
      objectReference: {fileID: 0}
    - target: {fileID: 435914, guid: c493d3d03cbce404cb4426d18901b4a2, type: 3}
      propertyPath: m_LocalPosition.x
      value: 0
      objectReference: {fileID: 0}
    - target: {fileID: 435914, guid: c493d3d03cbce404cb4426d18901b4a2, type: 3}
      propertyPath: m_LocalPosition.y
      value: 0
      objectReference: {fileID: 0}
    - target: {fileID: 435914, guid: c493d3d03cbce404cb4426d18901b4a2, type: 3}
      propertyPath: m_LocalPosition.z
      value: 0
      objectReference: {fileID: 0}
    - target: {fileID: 435914, guid: c493d3d03cbce404cb4426d18901b4a2, type: 3}
      propertyPath: m_LocalRotation.w
      value: .486513644
      objectReference: {fileID: 0}
    - target: {fileID: 435914, guid: c493d3d03cbce404cb4426d18901b4a2, type: 3}
      propertyPath: m_LocalRotation.x
      value: .828550398
      objectReference: {fileID: 0}
    - target: {fileID: 435914, guid: c493d3d03cbce404cb4426d18901b4a2, type: 3}
      propertyPath: m_LocalRotation.y
      value: .250630587
      objectReference: {fileID: 0}
    - target: {fileID: 435914, guid: c493d3d03cbce404cb4426d18901b4a2, type: 3}
      propertyPath: m_LocalRotation.z
      value: -.118292049
      objectReference: {fileID: 0}
    - target: {fileID: 2395338, guid: c493d3d03cbce404cb4426d18901b4a2, type: 3}
      propertyPath: m_Materials.Array.data[0]
      value: 
      objectReference: {fileID: 2100000, guid: ef53862a251c3ad4d95b2b376608ee3f, type: 2}
    m_RemovedComponents: []
  m_SourcePrefab: {fileID: 100100000, guid: c493d3d03cbce404cb4426d18901b4a2, type: 3}
--- !u!1001 &1861668620
PrefabInstance:
  m_ObjectHideFlags: 0
  serializedVersion: 2
  m_Modification:
    m_TransformParent: {fileID: 0}
    m_Modifications:
    - target: {fileID: 429518, guid: 57a95317300c4f3429baab9f22400d96, type: 3}
      propertyPath: m_RootOrder
      value: 0
      objectReference: {fileID: 0}
    - target: {fileID: 429518, guid: 57a95317300c4f3429baab9f22400d96, type: 3}
      propertyPath: m_LocalScale.x
      value: .584989309
      objectReference: {fileID: 0}
    - target: {fileID: 429518, guid: 57a95317300c4f3429baab9f22400d96, type: 3}
      propertyPath: m_LocalScale.y
      value: .58498925
      objectReference: {fileID: 0}
    - target: {fileID: 429518, guid: 57a95317300c4f3429baab9f22400d96, type: 3}
      propertyPath: m_LocalScale.z
      value: .58498925
      objectReference: {fileID: 0}
    - target: {fileID: 429518, guid: 57a95317300c4f3429baab9f22400d96, type: 3}
      propertyPath: m_LocalPosition.x
      value: -19.2900009
      objectReference: {fileID: 0}
    - target: {fileID: 429518, guid: 57a95317300c4f3429baab9f22400d96, type: 3}
      propertyPath: m_LocalPosition.y
      value: -6.53999996
      objectReference: {fileID: 0}
    - target: {fileID: 429518, guid: 57a95317300c4f3429baab9f22400d96, type: 3}
      propertyPath: m_LocalPosition.z
      value: 27.8500004
      objectReference: {fileID: 0}
    - target: {fileID: 429518, guid: 57a95317300c4f3429baab9f22400d96, type: 3}
      propertyPath: m_LocalRotation.w
      value: .96802181
      objectReference: {fileID: 0}
    - target: {fileID: 429518, guid: 57a95317300c4f3429baab9f22400d96, type: 3}
      propertyPath: m_LocalRotation.x
      value: -.0966010094
      objectReference: {fileID: 0}
    - target: {fileID: 429518, guid: 57a95317300c4f3429baab9f22400d96, type: 3}
      propertyPath: m_LocalRotation.y
      value: -.22766149
      objectReference: {fileID: 0}
    - target: {fileID: 429518, guid: 57a95317300c4f3429baab9f22400d96, type: 3}
      propertyPath: m_LocalRotation.z
      value: .0420996398
      objectReference: {fileID: 0}
    m_RemovedComponents: []
  m_SourcePrefab: {fileID: 100100000, guid: 57a95317300c4f3429baab9f22400d96, type: 3}
--- !u!1001 &1917071091
PrefabInstance:
  m_ObjectHideFlags: 0
  serializedVersion: 2
  m_Modification:
    m_TransformParent: {fileID: 0}
    m_Modifications:
    - target: {fileID: 109258, guid: c493d3d03cbce404cb4426d18901b4a2, type: 3}
      propertyPath: m_Name
      value: Nebula_Medium 3
      objectReference: {fileID: 0}
    - target: {fileID: 435914, guid: c493d3d03cbce404cb4426d18901b4a2, type: 3}
      propertyPath: m_RootOrder
      value: 0
      objectReference: {fileID: 0}
    - target: {fileID: 435914, guid: c493d3d03cbce404cb4426d18901b4a2, type: 3}
      propertyPath: m_LocalPosition.x
      value: 0
      objectReference: {fileID: 0}
    - target: {fileID: 435914, guid: c493d3d03cbce404cb4426d18901b4a2, type: 3}
      propertyPath: m_LocalPosition.y
      value: 0
      objectReference: {fileID: 0}
    - target: {fileID: 435914, guid: c493d3d03cbce404cb4426d18901b4a2, type: 3}
      propertyPath: m_LocalPosition.z
      value: 0
      objectReference: {fileID: 0}
    - target: {fileID: 435914, guid: c493d3d03cbce404cb4426d18901b4a2, type: 3}
      propertyPath: m_LocalRotation.w
      value: .724695563
      objectReference: {fileID: 0}
    - target: {fileID: 435914, guid: c493d3d03cbce404cb4426d18901b4a2, type: 3}
      propertyPath: m_LocalRotation.x
      value: .612090886
      objectReference: {fileID: 0}
    - target: {fileID: 435914, guid: c493d3d03cbce404cb4426d18901b4a2, type: 3}
      propertyPath: m_LocalRotation.y
      value: -.189881787
      objectReference: {fileID: 0}
    - target: {fileID: 435914, guid: c493d3d03cbce404cb4426d18901b4a2, type: 3}
      propertyPath: m_LocalRotation.z
      value: .25319168
      objectReference: {fileID: 0}
    - target: {fileID: 2395338, guid: c493d3d03cbce404cb4426d18901b4a2, type: 3}
      propertyPath: m_Materials.Array.data[0]
      value: 
      objectReference: {fileID: 2100000, guid: 37a0a7a86d41b3e43b7a4fdb260ab66b, type: 2}
    m_RemovedComponents: []
  m_SourcePrefab: {fileID: 100100000, guid: c493d3d03cbce404cb4426d18901b4a2, type: 3}
